-78.5034
-78.5034
-78.5034
-78.5034
-78.503
-78.503
-78.503
-78.503
-78.5027
-78.5027
-78.5027
-78.5027
-78.5024
-78.5024
-78.5024
-78.5024
-78.502
-78.502
-78.502
-78.502
-78.5017
-78.5017
-78.5017
-78.5017
-78.5014
-78.5014
-78.5014
-78.5014
-78.5011
-78.5011
-78.5011
-78.5011
-78.5007
-78.5007
-78.5007
-78.5007
-78.5004
-78.5004
-78.5004
-78.5004
-78.5001
-78.5001
-78.5001
-78.5001
-78.4997
-78.4997
-78.4997
-78.4997
-78.4994
-78.4994
-78.4994
-78.4994
-78.4991
-78.4991
-78.4991
-78.4991
-78.4987
-78.4987
-78.4987
-78.4987
-78.4984
-78.4984
-78.4984
-78.4984
-78.4981
-78.4981
-78.4981
-78.4981
-78.4978
-78.4978
-78.4978
-78.4978
-78.4974
-78.4974
-78.4974
-78.4974
-78.4971
-78.4971
-78.4971
-78.4971
-78.4968
-78.4968
-78.4968
-78.4968
-78.4964
-78.4964
-78.4964
-78.4964
-78.4961
-78.4961
-78.4961
-78.4961
-78.4958
-78.4958
-78.4958
-78.4958
-78.4954
-78.4954
-78.4954
-78.4954
-78.4951
-78.4951
-78.4951
-78.4951
-78.4948
-78.4948
-78.4948
-78.4948
-78.4945
-78.4945
-78.4945
-78.4945
-78.4941
-78.4941
-78.4941
-78.4941
-78.4938
-78.4938
-78.4938
-78.4938
-78.4935
-78.4935
-78.4935
-78.4935
-78.4931
-78.4931
-78.4931
-78.4931
-78.4928
-78.4928
-78.4928
-78.4928
-78.4925
-78.4925
-78.4925
-78.4925
-78.4921
-78.4921
-78.4921
-78.4921
-78.4918
-78.4918
-78.4918
-78.4918
-78.4915
-78.4915
-78.4915
-78.4915
-78.4912
-78.4912
-78.4912
-78.4912
-78.4908
-78.4908
-78.4908
-78.4908
-78.4905
-78.4905
-78.4905
-78.4905
-78.4902
-78.4902
-78.4902
-78.4902
-78.4898
-78.4898
-78.4898
-78.4898
-78.4895
-78.4895
-78.4895
-78.4895
-78.4892
-78.4892
-78.4892
-78.4892
-78.4888
-78.4888
-78.4888
-78.4888
-78.4885
-78.4885
-78.4885
-78.4885
-78.4882
-78.4882
-78.4882
-78.4882
-78.4879
-78.4879
-78.4879
-78.4879
-78.4875
-78.4875
-78.4875
-78.4875
-78.4872
-78.4872
-78.4872
-78.4872
-78.4869
-78.4869
-78.4869
-78.4869
-78.4865
-78.4865
-78.4865
-78.4865
-78.4862
-78.4862
-78.4862
-78.4862
-78.4859
-78.4859
-78.4859
-78.4859
-78.4855
-78.4855
-78.4855
-78.4855
-78.4852
-78.4852
-78.4852
-78.4852
-78.4849
-78.4849
-78.4849
-78.4849
-78.4846
-78.4846
-78.4846
-78.4846
-78.4842
-78.4842
-78.4842
-78.4842
-78.4839
-78.4839
-78.4839
-78.4839
-78.4836
-78.4836
-78.4836
-78.4836
-78.4832
-78.4832
-78.4832
-78.4832
-78.4829
-78.4829
-78.4829
-78.4829
-78.4826
-78.4826
-78.4826
-78.4826
-78.4822
-78.4822
-78.4822
-78.4822
-78.4819
-78.4819
-78.4819
-78.4819
-78.4816
-78.4816
-78.4816
-78.4816
-78.4813
-78.4813
-78.4813
-78.4813
-78.4809
-78.4809
-78.4809
-78.4809
-78.4806
-78.4806
-78.4806
-78.4806
-78.4803
-78.4803
-78.4803
-78.4803
-78.4799
-78.4799
-78.4799
-78.4799
-78.4796
-78.4796
-78.4796
-78.4796
-78.4793
-78.4793
-78.4793
-78.4793
-78.4789
-78.4789
-78.4789
-78.4789
-78.4786
-78.4786
-78.4786
-78.4786
-78.4783
-78.4783
-78.4783
-78.4783
-78.478
-78.478
-78.478
-78.478
-78.4776
-78.4776
-78.4776
-78.4776
-78.4773
-78.4773
-78.4773
-78.4773
-78.477
-78.477
-78.477
-78.477
-78.4766
-78.4766
-78.4766
-78.4766
-78.4763
-78.4763
-78.4763
-78.4763
-78.476
-78.476
-78.476
-78.476
-78.4756
-78.4756
-78.4756
-78.4756
-78.4753
-78.4753
-78.4753
-78.4753
-78.475
-78.475
-78.475
-78.475
-78.4747
-78.4747
-78.4747
-78.4747
-78.4743
-78.4743
-78.4743
-78.4743
-78.474
-78.474
-78.474
-78.474
-78.4737
-78.4737
-78.4737
-78.4737
-78.4733
-78.4733
-78.4733
-78.4733
-78.473
-78.473
-78.473
-78.473
-78.4727
-78.4727
-78.4727
-78.4727
-78.4723
-78.4723
-78.4723
-78.4723
-78.472
-78.472
-78.472
-78.472
-78.4717
-78.4717
-78.4717
-78.4717
-78.4714
-78.4714
-78.4714
-78.4714
-78.471
-78.471
-78.471
-78.471
-78.4707
-78.4707
-78.4707
-78.4707
-78.4704
-78.4704
-78.4704
-78.4704
-78.47
-78.47
-78.47
-78.47
-78.4697
-78.4697
-78.4697
-78.4697
-78.4694
-78.4694
-78.4694
-78.4694
-78.469
-78.469
-78.469
-78.469
-78.4687
-78.4687
-78.4687
-78.4687
-78.4684
-78.4684
-78.4684
-78.4684
-78.4681
-78.4681
-78.4681
-78.4681
-78.4677
-78.4677
-78.4677
-78.4677
-78.4674
-78.4674
-78.4674
-78.4674
-78.4671
-78.4671
-78.4671
-78.4671
-78.4667
-78.4667
-78.4667
-78.4667
-78.4664
-78.4664
-78.4664
-78.4664
-78.4661
-78.4661
-78.4661
-78.4661
-78.4657
-78.4657
-78.4657
-78.4657
-78.4654
-78.4654
-78.4654
-78.4654
-78.4651
-78.4651
-78.4651
-78.4651
-78.4648
-78.4648
-78.4648
-78.4648
-78.4644
-78.4644
-78.4644
-78.4644
-78.4641
-78.4641
-78.4641
-78.4641
-78.4638
-78.4638
-78.4638
-78.4638
-78.4634
-78.4634
-78.4634
-78.4634
-78.4631
-78.4631
-78.4631
-78.4631
-78.4628
-78.4628
-78.4628
-78.4628
-78.4624
-78.4624
-78.4624
-78.4624
-78.4621
-78.4621
-78.4621
-78.4621
-78.4618
-78.4618
-78.4618
-78.4618
-78.4615
-78.4615
-78.4615
-78.4615
-78.4611
-78.4611
-78.4611
-78.4611
-78.4608
-78.4608
-78.4608
-78.4608
-78.4605
-78.4605
-78.4605
-78.4605
-78.4601
-78.4601
-78.4601
-78.4601
-78.4598
-78.4598
-78.4598
-78.4598
-78.4595
-78.4595
-78.4595
-78.4595
-78.4591
-78.4591
-78.4591
-78.4591
-78.4588
-78.4588
-78.4588
-78.4588
-78.4585
-78.4585
-78.4585
-78.4585
-78.4582
-78.4582
-78.4582
-78.4582
-78.4578
-78.4578
-78.4578
-78.4578
-78.4575
-78.4575
-78.4575
-78.4575
-78.4572
-78.4572
-78.4572
-78.4572
-78.4568
-78.4568
-78.4568
-78.4568
-78.4565
-78.4565
-78.4565
-78.4565
-78.4562
-78.4562
-78.4562
-78.4562
-78.4558
-78.4558
-78.4558
-78.4558
-78.4555
-78.4555
-78.4555
-78.4555
-78.4552
-78.4552
-78.4552
-78.4552
-78.4549
-78.4549
-78.4549
-78.4549
-78.4545
-78.4545
-78.4545
-78.4545
-78.4542
-78.4542
-78.4542
-78.4542
-78.4539
-78.4539
-78.4539
-78.4539
-78.4535
-78.4535
-78.4535
-78.4535
-78.4532
-78.4532
-78.4532
-78.4532
-78.4529
-78.4529
-78.4529
-78.4529
-78.4525
-78.4525
-78.4525
-78.4525
-78.4522
-78.4522
-78.4522
-78.4522
-78.4519
-78.4519
-78.4519
-78.4519
-78.4516
-78.4516
-78.4516
-78.4516
-78.4512
-78.4512
-78.4512
-78.4512
-78.4509
-78.4509
-78.4509
-78.4509
-78.4506
-78.4506
-78.4506
-78.4506
-78.4502
-78.4502
-78.4502
-78.4502
-78.4499
-78.4499
-78.4499
-78.4499
-78.4496
-78.4496
-78.4496
-78.4496
-78.4492
-78.4492
-78.4492
-78.4492
-78.4489
-78.4489
-78.4489
-78.4489
-78.4486
-78.4486
-78.4486
-78.4486
-78.4483
-78.4483
-78.4483
-78.4483
-78.4479
-78.4479
-78.4479
-78.4479
-78.4476
-78.4476
-78.4476
-78.4476
-78.4473
-78.4473
-78.4473
-78.4473
-78.4469
-78.4469
-78.4469
-78.4469
-78.4466
-78.4466
-78.4466
-78.4466
-78.4463
-78.4463
-78.4463
-78.4463
-78.4459
-78.4459
-78.4459
-78.4459
-78.4456
-78.4456
-78.4456
-78.4456
-78.4453
-78.4453
-78.4453
-78.4453
-78.445
-78.445
-78.445
-78.445
-78.4446
-78.4446
-78.4446
-78.4446
-78.4443
-78.4443
-78.4443
-78.4443
-78.444
-78.444
-78.444
-78.444
-78.4436
-78.4436
-78.4436
-78.4436
-78.4433
-78.4433
-78.4433
-78.4433
-78.443
-78.443
-78.443
-78.443
-78.4426
-78.4426
-78.4426
-78.4426
-78.4423
-78.4423
-78.4423
-78.4423
-78.442
-78.442
-78.442
-78.442
-78.4417
-78.4417
-78.4417
-78.4417
-78.4413
-78.4413
-78.4413
-78.4413
-78.441
-78.441
-78.441
-78.441
-78.4407
-78.4407
-78.4407
-78.4407
-78.4403
-78.4403
-78.4403
-78.4403
-78.44
-78.44
-78.44
-78.44
-78.4397
-78.4397
-78.4397
-78.4397
-78.4393
-78.4393
-78.4393
-78.4393
-78.439
-78.439
-78.439
-78.439
-78.4387
-78.4387
-78.4387
-78.4387
-78.4384
-78.4384
-78.4384
-78.4384
-78.438
-78.438
-78.438
-78.438
-78.4377
-78.4377
-78.4377
-78.4377
-78.4374
-78.4374
-78.4374
-78.4374
-78.437
-78.437
-78.437
-78.437
-78.4367
-78.4367
-78.4367
-78.4367
-78.4364
-78.4364
-78.4364
-78.4364
-78.436
-78.436
-78.436
-78.436
-78.4357
-78.4357
-78.4357
-78.4357
-78.4354
-78.4354
-78.4354
-78.4354
-78.4351
-78.4351
-78.4351
-78.4351
-78.4347
-78.4347
-78.4347
-78.4347
-78.4344
-78.4344
-78.4344
-78.4344
-78.4341
-78.4341
-78.4341
-78.4341
-78.4337
-78.4337
-78.4337
-78.4337
-78.4334
-78.4334
-78.4334
-78.4334
-78.4331
-78.4331
-78.4331
-78.4331
-78.4327
-78.4327
-78.4327
-78.4327
-78.4324
-78.4324
-78.4324
-78.4324
-78.4321
-78.4321
-78.4321
-78.4321
-78.4318
-78.4318
-78.4318
-78.4318
-78.4314
-78.4314
-78.4314
-78.4314
-78.4311
-78.4311
-78.4311
-78.4311
-78.4308
-78.4308
-78.4308
-78.4308
-78.4304
-78.4304
-78.4304
-78.4304
-78.4301
-78.4301
-78.4301
-78.4301
-78.4298
-78.4298
-78.4298
-78.4298
-78.4294
-78.4294
-78.4294
-78.4294
-78.4291
-78.4291
-78.4291
-78.4291
-78.4288
-78.4288
-78.4288
-78.4288
-78.4285
-78.4285
-78.4285
-78.4285
-78.4281
-78.4281
-78.4281
-78.4281
-78.4278
-78.4278
-78.4278
-78.4278
-78.4275
-78.4275
-78.4275
-78.4275
-78.4271
-78.4271
-78.4271
-78.4271
-78.4268
-78.4268
-78.4268
-78.4268
-78.4265
-78.4265
-78.4265
-78.4265
-78.4261
-78.4261
-78.4261
-78.4261
-78.4258
-78.4258
-78.4258
-78.4258
-78.4255
-78.4255
-78.4255
-78.4255
-78.4252
-78.4252
-78.4252
-78.4252
-78.4248
-78.4248
-78.4248
-78.4248
-78.4245
-78.4245
-78.4245
-78.4245
-78.4242
-78.4242
-78.4242
-78.4242
-78.4238
-78.4238
-78.4238
-78.4238
-78.4235
-78.4235
-78.4235
-78.4235
-78.4232
-78.4232
-78.4232
-78.4232
-78.4228
-78.4228
-78.4228
-78.4228
-78.4225
-78.4225
-78.4225
-78.4225
-78.4222
-78.4222
-78.4222
-78.4222
-78.4219
-78.4219
-78.4219
-78.4219
-78.4215
-78.4215
-78.4215
-78.4215
-78.4212
-78.4212
-78.4212
-78.4212
-78.4209
-78.4209
-78.4209
-78.4209
-78.4205
-78.4205
-78.4205
-78.4205
-78.4202
-78.4202
-78.4202
-78.4202
-78.4199
-78.4199
-78.4199
-78.4199
-78.4195
-78.4195
-78.4195
-78.4195
-78.4192
-78.4192
-78.4192
-78.4192
-78.4189
-78.4189
-78.4189
-78.4189
-78.4186
-78.4186
-78.4186
-78.4186
-78.4182
-78.4182
-78.4182
-78.4182
-78.4179
-78.4179
-78.4179
-78.4179
-78.4176
-78.4176
-78.4176
-78.4176
-78.4172
-78.4172
-78.4172
-78.4172
-78.4169
-78.4169
-78.4169
-78.4169
-78.4166
-78.4166
-78.4166
-78.4166
-78.4162
-78.4162
-78.4162
-78.4162
-78.4159
-78.4159
-78.4159
-78.4159
-78.4156
-78.4156
-78.4156
-78.4156
-78.4153
-78.4153
-78.4153
-78.4153
-78.4149
-78.4149
-78.4149
-78.4149
-78.4146
-78.4146
-78.4146
-78.4146
-78.4143
-78.4143
-78.4143
-78.4143
-78.4139
-78.4139
-78.4139
-78.4139
-78.4136
-78.4136
-78.4136
-78.4136
-78.4133
-78.4133
-78.4133
-78.4133
-78.4129
-78.4129
-78.4129
-78.4129
-78.4126
-78.4126
-78.4126
-78.4126
-78.4123
-78.4123
-78.4123
-78.4123
-78.412
-78.412
-78.412
-78.412
-78.4116
-78.4116
-78.4116
-78.4116
-78.4113
-78.4113
-78.4113
-78.4113
-78.411
-78.411
-78.411
-78.411
-78.4106
-78.4106
-78.4106
-78.4106
-78.4103
-78.4103
-78.4103
-78.4103
-78.41
-78.41
-78.41
-78.41
-78.4096
-78.4096
-78.4096
-78.4096
-78.4093
-78.4093
-78.4093
-78.4093
-78.409
-78.409
-78.409
-78.409
-78.4087
-78.4087
-78.4087
-78.4087
-78.4083
-78.4083
-78.4083
-78.4083
-78.408
-78.408
-78.408
-78.408
-78.4077
-78.4077
-78.4077
-78.4077
-78.4073
-78.4073
-78.4073
-78.4073
-78.407
-78.407
-78.407
-78.407
-78.4067
-78.4067
-78.4067
-78.4067
-78.4063
-78.4063
-78.4063
-78.4063
-78.406
-78.406
-78.406
-78.406
-78.4057
-78.4057
-78.4057
-78.4057
-78.4054
-78.4054
-78.4054
-78.4054
-78.405
-78.405
-78.405
-78.405
-78.4047
-78.4047
-78.4047
-78.4047
-78.4044
-78.4044
-78.4044
-78.4044
-78.404
-78.404
-78.404
-78.404
-78.4037
-78.4037
-78.4037
-78.4037
-78.4034
-78.4034
-78.4034
-78.4034
-78.403
-78.403
-78.403
-78.403
-78.4027
-78.4027
-78.4027
-78.4027
-78.4024
-78.4024
-78.4024
-78.4024
-78.4021
-78.4021
-78.4021
-78.4021
-78.4017
-78.4017
-78.4017
-78.4017
-78.4014
-78.4014
-78.4014
-78.4014
-78.4011
-78.4011
-78.4011
-78.4011
-78.4007
-78.4007
-78.4007
-78.4007
-78.4004
-78.4004
-78.4004
-78.4004
-78.4001
-78.4001
-78.4001
-78.4001
-78.3997
-78.3997
-78.3997
-78.3997
-78.3994
-78.3994
-78.3994
-78.3994
-78.3991
-78.3991
-78.3991
-78.3991
-78.3988
-78.3988
-78.3988
-78.3988
-78.3984
-78.3984
-78.3984
-78.3984
-78.3981
-78.3981
-78.3981
-78.3981
-78.3978
-78.3978
-78.3978
-78.3978
-78.3974
-78.3974
-78.3974
-78.3974
-78.3971
-78.3971
-78.3971
-78.3971
-78.3968
-78.3968
-78.3968
-78.3968
-78.3964
-78.3964
-78.3964
-78.3964
-78.3961
-78.3961
-78.3961
-78.3961
-78.3958
-78.3958
-78.3958
-78.3958
-78.3955
-78.3955
-78.3955
-78.3955
-78.3951
-78.3951
-78.3951
-78.3951
-78.3948
-78.3948
-78.3948
-78.3948
-78.3945
-78.3945
-78.3945
-78.3945
-78.3941
-78.3941
-78.3941
-78.3941
-78.3938
-78.3938
-78.3938
-78.3938
-78.3935
-78.3935
-78.3935
-78.3935
-78.3931
-78.3931
-78.3931
-78.3931
-78.3928
-78.3928
-78.3928
-78.3928
-78.3925
-78.3925
-78.3925
-78.3925
-78.3922
-78.3922
-78.3922
-78.3922
-78.3918
-78.3918
-78.3918
-78.3918
-78.3915
-78.3915
-78.3915
-78.3915
-78.3912
-78.3912
-78.3912
-78.3912
-78.3908
-78.3908
-78.3908
-78.3908
-78.3905
-78.3905
-78.3905
-78.3905
-78.3902
-78.3902
-78.3902
-78.3902
-78.3898
-78.3898
-78.3898
-78.3898
-78.3895
-78.3895
-78.3895
-78.3895
-78.3892
-78.3892
-78.3892
-78.3892
-78.3889
-78.3889
-78.3889
-78.3889
-78.3885
-78.3885
-78.3885
-78.3885
-78.3882
-78.3882
-78.3882
-78.3882
-78.3879
-78.3879
-78.3879
-78.3879
-78.3875
-78.3875
-78.3875
-78.3875
-78.3872
-78.3872
-78.3872
-78.3872
-78.3869
-78.3869
-78.3869
-78.3869
-78.3865
-78.3865
-78.3865
-78.3865
-78.3862
-78.3862
-78.3862
-78.3862
-78.3859
-78.3859
-78.3859
-78.3859
-78.3856
-78.3856
-78.3856
-78.3856
-78.3852
-78.3852
-78.3852
-78.3852
-78.3849
-78.3849
-78.3849
-78.3849
-78.3846
-78.3846
-78.3846
-78.3846
-78.3842
-78.3842
-78.3842
-78.3842
-78.3839
-78.3839
-78.3839
-78.3839
-78.3836
-78.3836
-78.3836
-78.3836
-78.3832
-78.3832
-78.3832
-78.3832
-78.3829
-78.3829
-78.3829
-78.3829
-78.3826
-78.3826
-78.3826
-78.3826
-78.3823
-78.3823
-78.3823
-78.3823
-78.3819
-78.3819
-78.3819
-78.3819
-78.3816
-78.3816
-78.3816
-78.3816
-78.3813
-78.3813
-78.3813
-78.3813
-78.3809
-78.3809
-78.3809
-78.3809
-78.3806
-78.3806
-78.3806
-78.3806
-78.3803
-78.3803
-78.3803
-78.3803
-78.3799
-78.3799
-78.3799
-78.3799
-78.3796
-78.3796
-78.3796
-78.3796
-78.3793
-78.3793
-78.3793
-78.3793
-78.379
-78.379
-78.379
-78.379
-78.3786
-78.3786
-78.3786
-78.3786
-78.3783
-78.3783
-78.3783
-78.3783
-78.378
-78.378
-78.378
-78.378
-78.3776
-78.3776
-78.3776
-78.3776
-78.3773
-78.3773
-78.3773
-78.3773
-78.377
-78.377
-78.377
-78.377
-78.3766
-78.3766
-78.3766
-78.3766
-78.3763
-78.3763
-78.3763
-78.3763
-78.376
-78.376
-78.376
-78.376
-78.3757
-78.3757
-78.3757
-78.3757
-78.3753
-78.3753
-78.3753
-78.3753
-78.375
-78.375
-78.375
-78.375
-78.3747
-78.3747
-78.3747
-78.3747
-78.3743
-78.3743
-78.3743
-78.3743
-78.374
-78.374
-78.374
-78.374
-78.3737
-78.3737
-78.3737
-78.3737
-78.3733
-78.3733
-78.3733
-78.3733
-78.373
-78.373
-78.373
-78.373
-78.3727
-78.3727
-78.3727
-78.3727
-78.3724
-78.3724
-78.3724
-78.3724
-78.372
-78.372
-78.372
-78.372
-78.3717
-78.3717
-78.3717
-78.3717
-78.3714
-78.3714
-78.3714
-78.3714
-78.371
-78.371
-78.371
-78.371
-78.3707
-78.3707
-78.3707
-78.3707
-78.3704
-78.3704
-78.3704
-78.3704
-78.37
-78.37
-78.37
-78.37
-78.3697
-78.3697
-78.3697
-78.3697
-78.3694
-78.3694
-78.3694
-78.3694
-78.3691
-78.3691
-78.3691
-78.3691
-78.3687
-78.3687
-78.3687
-78.3687
-78.3684
-78.3684
-78.3684
-78.3684
-78.3681
-78.3681
-78.3681
-78.3681
-78.3677
-78.3677
-78.3677
-78.3677
-78.3674
-78.3674
-78.3674
-78.3674
-78.3671
-78.3671
-78.3671
-78.3671
-78.3667
-78.3667
-78.3667
-78.3667
-78.3664
-78.3664
-78.3664
-78.3664
-78.3661
-78.3661
-78.3661
-78.3661
-78.3658
-78.3658
-78.3658
-78.3658
-78.3654
-78.3654
-78.3654
-78.3654
-78.3651
-78.3651
-78.3651
-78.3651
-78.3648
-78.3648
-78.3648
-78.3648
-78.3644
-78.3644
-78.3644
-78.3644
-78.3641
-78.3641
-78.3641
-78.3641
-78.3638
-78.3638
-78.3638
-78.3638
-78.3634
-78.3634
-78.3634
-78.3634
-78.3631
-78.3631
-78.3631
-78.3631
-78.3628
-78.3628
-78.3628
-78.3628
-78.3625
-78.3625
-78.3625
-78.3625
-78.3621
-78.3621
-78.3621
-78.3621
-78.3618
-78.3618
-78.3618
-78.3618
-78.3615
-78.3615
-78.3615
-78.3615
-78.3611
-78.3611
-78.3611
-78.3611
-78.3608
-78.3608
-78.3608
-78.3608
-78.3605
-78.3605
-78.3605
-78.3605
-78.3601
-78.3601
-78.3601
-78.3601
-78.3598
-78.3598
-78.3598
-78.3598
-78.3595
-78.3595
-78.3595
-78.3595
-78.3592
-78.3592
-78.3592
-78.3592
-78.3588
-78.3588
-78.3588
-78.3588
-78.3585
-78.3585
-78.3585
-78.3585
-78.3582
-78.3582
-78.3582
-78.3582
-78.3578
-78.3578
-78.3578
-78.3578
-78.3575
-78.3575
-78.3575
-78.3575
-78.3572
-78.3572
-78.3572
-78.3572
-78.3568
-78.3568
-78.3568
-78.3568
-78.3565
-78.3565
-78.3565
-78.3565
-78.3562
-78.3562
-78.3562
-78.3562
-78.3559
-78.3559
-78.3559
-78.3559
-78.3555
-78.3555
-78.3555
-78.3555
-78.3552
-78.3552
-78.3552
-78.3552
-78.3549
-78.3549
-78.3549
-78.3549
-78.3545
-78.3545
-78.3545
-78.3545
-78.3542
-78.3542
-78.3542
-78.3542
-78.3539
-78.3539
-78.3539
-78.3539
-78.3535
-78.3535
-78.3535
-78.3535
-78.3532
-78.3532
-78.3532
-78.3532
-78.3529
-78.3529
-78.3529
-78.3529
-78.3526
-78.3526
-78.3526
-78.3526
-78.3522
-78.3522
-78.3522
-78.3522
-78.3519
-78.3519
-78.3519
-78.3519
-78.3516
-78.3516
-78.3516
-78.3516
-78.3512
-78.3512
-78.3512
-78.3512
-78.3509
-78.3509
-78.3509
-78.3509
-78.3506
-78.3506
-78.3506
-78.3506
-78.3502
-78.3502
-78.3502
-78.3502
-78.3499
-78.3499
-78.3499
-78.3499
-78.3496
-78.3496
-78.3496
-78.3496
-78.3493
-78.3493
-78.3493
-78.3493
-78.3489
-78.3489
-78.3489
-78.3489
-78.3486
-78.3486
-78.3486
-78.3486
-78.3483
-78.3483
-78.3483
-78.3483
-78.3479
-78.3479
-78.3479
-78.3479
-78.3476
-78.3476
-78.3476
-78.3476
-78.3473
-78.3473
-78.3473
-78.3473
-78.3469
-78.3469
-78.3469
-78.3469
-78.3466
-78.3466
-78.3466
-78.3466
-78.3463
-78.3463
-78.3463
-78.3463
-78.346
-78.346
-78.346
-78.346
-78.3456
-78.3456
-78.3456
-78.3456
-78.3453
-78.3453
-78.3453
-78.3453
-78.345
-78.345
-78.345
-78.345
-78.3446
-78.3446
-78.3446
-78.3446
-78.3443
-78.3443
-78.3443
-78.3443
-78.344
-78.344
-78.344
-78.344
-78.3436
-78.3436
-78.3436
-78.3436
-78.3433
-78.3433
-78.3433
-78.3433
-78.343
-78.343
-78.343
-78.343
-78.3427
-78.3427
-78.3427
-78.3427
-78.3423
-78.3423
-78.3423
-78.3423
-78.342
-78.342
-78.342
-78.342
-78.3417
-78.3417
-78.3417
-78.3417
-78.3413
-78.3413
-78.3413
-78.3413
-78.341
-78.341
-78.341
-78.341
-78.3407
-78.3407
-78.3407
-78.3407
-78.3403
-78.3403
-78.3403
-78.3403
-78.34
-78.34
-78.34
-78.34
-78.3397
-78.3397
-78.3397
-78.3397
-78.3394
-78.3394
-78.3394
-78.3394
-78.339
-78.339
-78.339
-78.339
-78.3387
-78.3387
-78.3387
-78.3387
-78.3384
-78.3384
-78.3384
-78.3384
-78.338
-78.338
-78.338
-78.338
-78.3377
-78.3377
-78.3377
-78.3377
-78.3374
-78.3374
-78.3374
-78.3374
-78.337
-78.337
-78.337
-78.337
-78.3367
-78.3367
-78.3367
-78.3367
-78.3364
-78.3364
-78.3364
-78.3364
-78.3361
-78.3361
-78.3361
-78.3361
-78.3357
-78.3357
-78.3357
-78.3357
-78.3354
-78.3354
-78.3354
-78.3354
-78.3351
-78.3351
-78.3351
-78.3351
-78.3347
-78.3347
-78.3347
-78.3347
-78.3344
-78.3344
-78.3344
-78.3344
-78.3341
-78.3341
-78.3341
-78.3341
-78.3337
-78.3337
-78.3337
-78.3337
-78.3334
-78.3334
-78.3334
-78.3334
-78.3331
-78.3331
-78.3331
-78.3331
-78.3328
-78.3328
-78.3328
-78.3328
-78.3324
-78.3324
-78.3324
-78.3324
-78.3321
-78.3321
-78.3321
-78.3321
-78.3318
-78.3318
-78.3318
-78.3318
-78.3314
-78.3314
-78.3314
-78.3314
-78.3311
-78.3311
-78.3311
-78.3311
-78.3308
-78.3308
-78.3308
-78.3308
-78.3304
-78.3304
-78.3304
-78.3304
-78.3301
-78.3301
-78.3301
-78.3301
-78.3298
-78.3298
-78.3298
-78.3298
-78.3295
-78.3295
-78.3295
-78.3295
-78.3291
-78.3291
-78.3291
-78.3291
-78.3288
-78.3288
-78.3288
-78.3288
-78.3285
-78.3285
-78.3285
-78.3285
-78.3281
-78.3281
-78.3281
-78.3281
-78.3278
-78.3278
-78.3278
-78.3278
-78.3275
-78.3275
-78.3275
-78.3275
-78.3271
-78.3271
-78.3271
-78.3271
-78.3268
-78.3268
-78.3268
-78.3268
-78.3265
-78.3265
-78.3265
-78.3265
-78.3262
-78.3262
-78.3262
-78.3262
-78.3258
-78.3258
-78.3258
-78.3258
-78.3255
-78.3255
-78.3255
-78.3255
-78.3252
-78.3252
-78.3252
-78.3252
-78.3248
-78.3248
-78.3248
-78.3248
-78.3245
-78.3245
-78.3245
-78.3245
-78.3242
-78.3242
-78.3242
-78.3242
-78.3238
-78.3238
-78.3238
-78.3238
-78.3235
-78.3235
-78.3235
-78.3235
-78.3232
-78.3232
-78.3232
-78.3232
-78.3229
-78.3229
-78.3229
-78.3229
-78.3225
-78.3225
-78.3225
-78.3225
-78.3222
-78.3222
-78.3222
-78.3222
-78.3219
-78.3219
-78.3219
-78.3219
-78.3215
-78.3215
-78.3215
-78.3215
-78.3212
-78.3212
-78.3212
-78.3212
-78.3209
-78.3209
-78.3209
-78.3209
-78.3205
-78.3205
-78.3205
-78.3205
-78.3202
-78.3202
-78.3202
-78.3202
-78.3199
-78.3199
-78.3199
-78.3199
-78.3196
-78.3196
-78.3196
-78.3196
-78.3192
-78.3192
-78.3192
-78.3192
-78.3189
-78.3189
-78.3189
-78.3189
-78.3186
-78.3186
-78.3186
-78.3186
-78.3182
-78.3182
-78.3182
-78.3182
-78.3179
-78.3179
-78.3179
-78.3179
-78.3176
-78.3176
-78.3176
-78.3176
-78.3172
-78.3172
-78.3172
-78.3172
-78.3169
-78.3169
-78.3169
-78.3169
-78.3166
-78.3166
-78.3166
-78.3166
-78.3163
-78.3163
-78.3163
-78.3163
-78.3159
-78.3159
-78.3159
-78.3159
-78.3156
-78.3156
-78.3156
-78.3156
-78.3153
-78.3153
-78.3153
-78.3153
-78.3149
-78.3149
-78.3149
-78.3149
-78.3146
-78.3146
-78.3146
-78.3146
-78.3143
-78.3143
-78.3143
-78.3143
-78.3139
-78.3139
-78.3139
-78.3139
-78.3136
-78.3136
-78.3136
-78.3136
-78.3133
-78.3133
-78.3133
-78.3133
-78.313
-78.313
-78.313
-78.313
-78.3126
-78.3126
-78.3126
-78.3126
-78.3123
-78.3123
-78.3123
-78.3123
-78.312
-78.312
-78.312
-78.312
-78.3116
-78.3116
-78.3116
-78.3116
-78.3113
-78.3113
-78.3113
-78.3113
-78.311
-78.311
-78.311
-78.311
-78.3106
-78.3106
-78.3106
-78.3106
-78.3103
-78.3103
-78.3103
-78.3103
-78.31
-78.31
-78.31
-78.31
-78.3097
-78.3097
-78.3097
-78.3097
-78.3093
-78.3093
-78.3093
-78.3093
-78.309
-78.309
-78.309
-78.309
-78.3087
-78.3087
-78.3087
-78.3087
-78.3083
-78.3083
-78.3083
-78.3083
-78.308
-78.308
-78.308
-78.308
-78.3077
-78.3077
-78.3077
-78.3077
-78.3073
-78.3073
-78.3073
-78.3073
-78.307
-78.307
-78.307
-78.307
-78.3067
-78.3067
-78.3067
-78.3067
-78.3064
-78.3064
-78.3064
-78.3064
-78.306
-78.306
-78.306
-78.306
-78.3057
-78.3057
-78.3057
-78.3057
-78.3054
-78.3054
-78.3054
-78.3054
-78.305
-78.305
-78.305
-78.305
-78.3047
-78.3047
-78.3047
-78.3047
-78.3044
-78.3044
-78.3044
-78.3044
-78.304
-78.304
-78.304
-78.304
-78.3037
-78.3037
-78.3037
-78.3037
-78.3034
-78.3034
-78.3034
-78.3034
-78.3031
-78.3031
-78.3031
-78.3031
-78.3027
-78.3027
-78.3027
-78.3027
-78.3024
-78.3024
-78.3024
-78.3024
-78.3021
-78.3021
-78.3021
-78.3021
-78.3017
-78.3017
-78.3017
-78.3017
-78.3014
-78.3014
-78.3014
-78.3014
-78.3011
-78.3011
-78.3011
-78.3011
-78.3007
-78.3007
-78.3007
-78.3007
-78.3004
-78.3004
-78.3004
-78.3004
-78.3001
-78.3001
-78.3001
-78.3001
-78.2998
-78.2998
-78.2998
-78.2998
-78.2994
-78.2994
-78.2994
-78.2994
-78.2991
-78.2991
-78.2991
-78.2991
-78.2988
-78.2988
-78.2988
-78.2988
-78.2984
-78.2984
-78.2984
-78.2984
-78.2981
-78.2981
-78.2981
-78.2981
-78.2978
-78.2978
-78.2978
-78.2978
-78.2974
-78.2974
-78.2974
-78.2974
-78.2971
-78.2971
-78.2971
-78.2971
-78.2968
-78.2968
-78.2968
-78.2968
-78.2965
-78.2965
-78.2965
-78.2965
-78.2961
-78.2961
-78.2961
-78.2961
-78.2958
-78.2958
-78.2958
-78.2958
-78.2955
-78.2955
-78.2955
-78.2955
-78.2951
-78.2951
-78.2951
-78.2951
-78.2948
-78.2948
-78.2948
-78.2948
-78.2945
-78.2945
-78.2945
-78.2945
-78.2941
-78.2941
-78.2941
-78.2941
-78.2938
-78.2938
-78.2938
-78.2938
-78.2935
-78.2935
-78.2935
-78.2935
-78.2932
-78.2932
-78.2932
-78.2932
-78.2928
-78.2928
-78.2928
-78.2928
-78.2925
-78.2925
-78.2925
-78.2925
-78.2922
-78.2922
-78.2922
-78.2922
-78.2918
-78.2918
-78.2918
-78.2918
-78.2915
-78.2915
-78.2915
-78.2915
-78.2912
-78.2912
-78.2912
-78.2912
-78.2908
-78.2908
-78.2908
-78.2908
-78.2905
-78.2905
-78.2905
-78.2905
-78.2902
-78.2902
-78.2902
-78.2902
-78.2899
-78.2899
-78.2899
-78.2899
-78.2895
-78.2895
-78.2895
-78.2895
-78.2892
-78.2892
-78.2892
-78.2892
-78.2889
-78.2889
-78.2889
-78.2889
-78.2885
-78.2885
-78.2885
-78.2885
-78.2882
-78.2882
-78.2882
-78.2882
-78.2879
-78.2879
-78.2879
-78.2879
-78.2875
-78.2875
-78.2875
-78.2875
-78.2872
-78.2872
-78.2872
-78.2872
-78.2869
-78.2869
-78.2869
-78.2869
-78.2866
-78.2866
-78.2866
-78.2866
-78.2862
-78.2862
-78.2862
-78.2862
-78.2859
-78.2859
-78.2859
-78.2859
-78.2856
-78.2856
-78.2856
-78.2856
-78.2852
-78.2852
-78.2852
-78.2852
-78.2849
-78.2849
-78.2849
-78.2849
-78.2846
-78.2846
-78.2846
-78.2846
-78.2842
-78.2842
-78.2842
-78.2842
-78.2839
-78.2839
-78.2839
-78.2839
-78.2836
-78.2836
-78.2836
-78.2836
-78.2833
-78.2833
-78.2833
-78.2833
-78.2829
-78.2829
-78.2829
-78.2829
-78.2826
-78.2826
-78.2826
-78.2826
-78.2823
-78.2823
-78.2823
-78.2823
-78.2819
-78.2819
-78.2819
-78.2819
-78.2816
-78.2816
-78.2816
-78.2816
-78.2813
-78.2813
-78.2813
-78.2813
-78.2809
-78.2809
-78.2809
-78.2809
-78.2806
-78.2806
-78.2806
-78.2806
-78.2803
-78.2803
-78.2803
-78.2803
-78.28
-78.28
-78.28
-78.28
-78.2796
-78.2796
-78.2796
-78.2796
-78.2793
-78.2793
-78.2793
-78.2793
-78.279
-78.279
-78.279
-78.279
-78.2786
-78.2786
-78.2786
-78.2786
-78.2783
-78.2783
-78.2783
-78.2783
-78.278
-78.278
-78.278
-78.278
-78.2776
-78.2776
-78.2776
-78.2776
-78.2773
-78.2773
-78.2773
-78.2773
-78.277
-78.277
-78.277
-78.277
-78.2767
-78.2767
-78.2767
-78.2767
-78.2763
-78.2763
-78.2763
-78.2763
-78.276
-78.276
-78.276
-78.276
-78.2757
-78.2757
-78.2757
-78.2757
-78.2753
-78.2753
-78.2753
-78.2753
-78.275
-78.275
-78.275
-78.275
-78.2747
-78.2747
-78.2747
-78.2747
-78.2743
-78.2743
-78.2743
-78.2743
-78.274
-78.274
-78.274
-78.274
-78.2737
-78.2737
-78.2737
-78.2737
-78.2734
-78.2734
-78.2734
-78.2734
-78.273
-78.273
-78.273
-78.273
-78.2727
-78.2727
-78.2727
-78.2727
-78.2724
-78.2724
-78.2724
-78.2724
-78.272
-78.272
-78.272
-78.272
-78.2717
-78.2717
-78.2717
-78.2717
-78.2714
-78.2714
-78.2714
-78.2714
-78.271
-78.271
-78.271
-78.271
-78.2707
-78.2707
-78.2707
-78.2707
-78.2704
-78.2704
-78.2704
-78.2704
-78.2701
-78.2701
-78.2701
-78.2701
-78.2697
-78.2697
-78.2697
-78.2697
-78.2694
-78.2694
-78.2694
-78.2694
-78.2691
-78.2691
-78.2691
-78.2691
-78.2687
-78.2687
-78.2687
-78.2687
-78.2684
-78.2684
-78.2684
-78.2684
-78.2681
-78.2681
-78.2681
-78.2681
-78.2677
-78.2677
-78.2677
-78.2677
-78.2674
-78.2674
-78.2674
-78.2674
-78.2671
-78.2671
-78.2671
-78.2671
-78.2668
-78.2668
-78.2668
-78.2668
-78.2664
-78.2664
-78.2664
-78.2664
-78.2661
-78.2661
-78.2661
-78.2661
-78.2658
-78.2658
-78.2658
-78.2658
-78.2654
-78.2654
-78.2654
-78.2654
-78.2651
-78.2651
-78.2651
-78.2651
-78.2648
-78.2648
-78.2648
-78.2648
-78.2644
-78.2644
-78.2644
-78.2644
-78.2641
-78.2641
-78.2641
-78.2641
-78.2638
-78.2638
-78.2638
-78.2638
-78.2635
-78.2635
-78.2635
-78.2635
-78.2631
-78.2631
-78.2631
-78.2631
-78.2628
-78.2628
-78.2628
-78.2628
-78.2625
-78.2625
-78.2625
-78.2625
-78.2621
-78.2621
-78.2621
-78.2621
-78.2618
-78.2618
-78.2618
-78.2618
-78.2615
-78.2615
-78.2615
-78.2615
-78.2611
-78.2611
-78.2611
-78.2611
-78.2608
-78.2608
-78.2608
-78.2608
-78.2605
-78.2605
-78.2605
-78.2605
-78.2602
-78.2602
-78.2602
-78.2602
-78.2598
-78.2598
-78.2598
-78.2598
-78.2595
-78.2595
-78.2595
-78.2595
-78.2592
-78.2592
-78.2592
-78.2592
-78.2588
-78.2588
-78.2588
-78.2588
-78.2585
-78.2585
-78.2585
-78.2585
-78.2582
-78.2582
-78.2582
-78.2582
-78.2578
-78.2578
-78.2578
-78.2578
-78.2575
-78.2575
-78.2575
-78.2575
-78.2572
-78.2572
-78.2572
-78.2572
-78.2569
-78.2569
-78.2569
-78.2569
-78.2565
-78.2565
-78.2565
-78.2565
-78.2562
-78.2562
-78.2562
-78.2562
-78.2559
-78.2559
-78.2559
-78.2559
-78.2555
-78.2555
-78.2555
-78.2555
-78.2552
-78.2552
-78.2552
-78.2552
-78.2549
-78.2549
-78.2549
-78.2549
-78.2545
-78.2545
-78.2545
-78.2545
-78.2542
-78.2542
-78.2542
-78.2542
-78.2539
-78.2539
-78.2539
-78.2539
-78.2536
-78.2536
-78.2536
-78.2536
-78.2532
-78.2532
-78.2532
-78.2532
-78.2529
-78.2529
-78.2529
-78.2529
-78.2526
-78.2526
-78.2526
-78.2526
-78.2522
-78.2522
-78.2522
-78.2522
-78.2519
-78.2519
-78.2519
-78.2519
-78.2516
-78.2516
-78.2516
-78.2516
-78.2512
-78.2512
-78.2512
-78.2512
-78.2509
-78.2509
-78.2509
-78.2509
-78.2506
-78.2506
-78.2506
-78.2506
-78.2503
-78.2503
-78.2503
-78.2503
-78.2499
-78.2499
-78.2499
-78.2499
-78.2496
-78.2496
-78.2496
-78.2496
-78.2493
-78.2493
-78.2493
-78.2493
-78.2489
-78.2489
-78.2489
-78.2489
-78.2486
-78.2486
-78.2486
-78.2486
-78.2483
-78.2483
-78.2483
-78.2483
-78.2479
-78.2479
-78.2479
-78.2479
-78.2476
-78.2476
-78.2476
-78.2476
-78.2473
-78.2473
-78.2473
-78.2473
-78.247
-78.247
-78.247
-78.247
-78.2466
-78.2466
-78.2466
-78.2466
-78.2463
-78.2463
-78.2463
-78.2463
-78.246
-78.246
-78.246
-78.246
-78.2456
-78.2456
-78.2456
-78.2456
-78.2453
-78.2453
-78.2453
-78.2453
-78.245
-78.245
-78.245
-78.245
-78.2446
-78.2446
-78.2446
-78.2446
-78.2443
-78.2443
-78.2443
-78.2443
-78.244
-78.244
-78.244
-78.244
-78.2437
-78.2437
-78.2437
-78.2437
-78.2433
-78.2433
-78.2433
-78.2433
-78.243
-78.243
-78.243
-78.243
-78.2427
-78.2427
-78.2427
-78.2427
-78.2423
-78.2423
-78.2423
-78.2423
-78.242
-78.242
-78.242
-78.242
-78.2417
-78.2417
-78.2417
-78.2417
-78.2413
-78.2413
-78.2413
-78.2413
-78.241
-78.241
-78.241
-78.241
-78.2407
-78.2407
-78.2407
-78.2407
-78.2404
-78.2404
-78.2404
-78.2404
-78.24
-78.24
-78.24
-78.24
-78.2397
-78.2397
-78.2397
-78.2397
-78.2394
-78.2394
-78.2394
-78.2394
-78.239
-78.239
-78.239
-78.239
-78.2387
-78.2387
-78.2387
-78.2387
-78.2384
-78.2384
-78.2384
-78.2384
-78.238
-78.238
-78.238
-78.238
-78.2377
-78.2377
-78.2377
-78.2377
-78.2374
-78.2374
-78.2374
-78.2374
-78.2371
-78.2371
-78.2371
-78.2371
-78.2367
-78.2367
-78.2367
-78.2367
-78.2364
-78.2364
-78.2364
-78.2364
-78.2361
-78.2361
-78.2361
-78.2361
-78.2357
-78.2357
-78.2357
-78.2357
-78.2354
-78.2354
-78.2354
-78.2354
-78.2351
-78.2351
-78.2351
-78.2351
-78.2347
-78.2347
-78.2347
-78.2347
-78.2344
-78.2344
-78.2344
-78.2344
-78.2341
-78.2341
-78.2341
-78.2341
-78.2338
-78.2338
-78.2338
-78.2338
-78.2334
-78.2334
-78.2334
-78.2334
-78.2331
-78.2331
-78.2331
-78.2331
-78.2328
-78.2328
-78.2328
-78.2328
-78.2324
-78.2324
-78.2324
-78.2324
-78.2321
-78.2321
-78.2321
-78.2321
-78.2318
-78.2318
-78.2318
-78.2318
-78.2314
-78.2314
-78.2314
-78.2314
-78.2311
-78.2311
-78.2311
-78.2311
-78.2308
-78.2308
-78.2308
-78.2308
-78.2305
-78.2305
-78.2305
-78.2305
-78.2301
-78.2301
-78.2301
-78.2301
-78.2298
-78.2298
-78.2298
-78.2298
-78.2295
-78.2295
-78.2295
-78.2295
-78.2291
-78.2291
-78.2291
-78.2291
-78.2288
-78.2288
-78.2288
-78.2288
-78.2285
-78.2285
-78.2285
-78.2285
-78.2281
-78.2281
-78.2281
-78.2281
-78.2278
-78.2278
-78.2278
-78.2278
-78.2275
-78.2275
-78.2275
-78.2275
-78.2272
-78.2272
-78.2272
-78.2272
-78.2268
-78.2268
-78.2268
-78.2268
-78.2265
-78.2265
-78.2265
-78.2265
-78.2262
-78.2262
-78.2262
-78.2262
-78.2258
-78.2258
-78.2258
-78.2258
-78.2255
-78.2255
-78.2255
-78.2255
-78.2252
-78.2252
-78.2252
-78.2252
-78.2248
-78.2248
-78.2248
-78.2248
-78.2245
-78.2245
-78.2245
-78.2245
-78.2242
-78.2242
-78.2242
-78.2242
-78.2239
-78.2239
-78.2239
-78.2239
-78.2235
-78.2235
-78.2235
-78.2235
-78.2232
-78.2232
-78.2232
-78.2232
-78.2229
-78.2229
-78.2229
-78.2229
-78.2225
-78.2225
-78.2225
-78.2225
-78.2222
-78.2222
-78.2222
-78.2222
-78.2219
-78.2219
-78.2219
-78.2219
-78.2215
-78.2215
-78.2215
-78.2215
-78.2212
-78.2212
-78.2212
-78.2212
-78.2209
-78.2209
-78.2209
-78.2209
-78.2206
-78.2206
-78.2206
-78.2206
-78.2202
-78.2202
-78.2202
-78.2202
-78.2199
-78.2199
-78.2199
-78.2199
-78.2196
-78.2196
-78.2196
-78.2196
-78.2192
-78.2192
-78.2192
-78.2192
-78.2189
-78.2189
-78.2189
-78.2189
-78.2186
-78.2186
-78.2186
-78.2186
-78.2182
-78.2182
-78.2182
-78.2182
-78.2179
-78.2179
-78.2179
-78.2179
-78.2176
-78.2176
-78.2176
-78.2176
-78.2173
-78.2173
-78.2173
-78.2173
-78.2169
-78.2169
-78.2169
-78.2169
-78.2166
-78.2166
-78.2166
-78.2166
-78.2163
-78.2163
-78.2163
-78.2163
-78.2159
-78.2159
-78.2159
-78.2159
-78.2156
-78.2156
-78.2156
-78.2156
-78.2153
-78.2153
-78.2153
-78.2153
-78.2149
-78.2149
-78.2149
-78.2149
-78.2146
-78.2146
-78.2146
-78.2146
-78.2143
-78.2143
-78.2143
-78.2143
-78.214
-78.214
-78.214
-78.214
-78.2136
-78.2136
-78.2136
-78.2136
-78.2133
-78.2133
-78.2133
-78.2133
-78.213
-78.213
-78.213
-78.213
-78.2126
-78.2126
-78.2126
-78.2126
-78.2123
-78.2123
-78.2123
-78.2123
-78.212
-78.212
-78.212
-78.212
-78.2116
-78.2116
-78.2116
-78.2116
-78.2113
-78.2113
-78.2113
-78.2113
-78.211
-78.211
-78.211
-78.211
-78.2107
-78.2107
-78.2107
-78.2107
-78.2103
-78.2103
-78.2103
-78.2103
-78.21
-78.21
-78.21
-78.21
-78.2097
-78.2097
-78.2097
-78.2097
-78.2093
-78.2093
-78.2093
-78.2093
-78.209
-78.209
-78.209
-78.209
-78.2087
-78.2087
-78.2087
-78.2087
-78.2083
-78.2083
-78.2083
-78.2083
-78.208
-78.208
-78.208
-78.208
-78.2077
-78.2077
-78.2077
-78.2077
-78.2074
-78.2074
-78.2074
-78.2074
-78.207
-78.207
-78.207
-78.207
-78.2067
-78.2067
-78.2067
-78.2067
-78.2064
-78.2064
-78.2064
-78.2064
-78.206
-78.206
-78.206
-78.206
-78.2057
-78.2057
-78.2057
-78.2057
-78.2054
-78.2054
-78.2054
-78.2054
-78.205
-78.205
-78.205
-78.205
-78.2047
-78.2047
-78.2047
-78.2047
-78.2044
-78.2044
-78.2044
-78.2044
-78.2041
-78.2041
-78.2041
-78.2041
-78.2037
-78.2037
-78.2037
-78.2037
-78.2034
-78.2034
-78.2034
-78.2034
-78.2031
-78.2031
-78.2031
-78.2031
-78.2027
-78.2027
-78.2027
-78.2027
-78.2024
-78.2024
-78.2024
-78.2024
-78.2021
-78.2021
-78.2021
-78.2021
-78.2017
-78.2017
-78.2017
-78.2017
-78.2014
-78.2014
-78.2014
-78.2014
-78.2011
-78.2011
-78.2011
-78.2011
-78.2008
-78.2008
-78.2008
-78.2008
-78.2004
-78.2004
-78.2004
-78.2004
-78.2001
-78.2001
-78.2001
-78.2001
-78.1998
-78.1998
-78.1998
-78.1998
-78.1994
-78.1994
-78.1994
-78.1994
-78.1991
-78.1991
-78.1991
-78.1991
-78.1988
-78.1988
-78.1988
-78.1988
-78.1984
-78.1984
-78.1984
-78.1984
-78.1981
-78.1981
-78.1981
-78.1981
-78.1978
-78.1978
-78.1978
-78.1978
-78.1975
-78.1975
-78.1975
-78.1975
-78.1971
-78.1971
-78.1971
-78.1971
-78.1968
-78.1968
-78.1968
-78.1968
-78.1965
-78.1965
-78.1965
-78.1965
-78.1961
-78.1961
-78.1961
-78.1961
-78.1958
-78.1958
-78.1958
-78.1958
-78.1955
-78.1955
-78.1955
-78.1955
-78.1951
-78.1951
-78.1951
-78.1951
-78.1948
-78.1948
-78.1948
-78.1948
-78.1945
-78.1945
-78.1945
-78.1945
-78.1942
-78.1942
-78.1942
-78.1942
-78.1938
-78.1938
-78.1938
-78.1938
-78.1935
-78.1935
-78.1935
-78.1935
-78.1932
-78.1932
-78.1932
-78.1932
-78.1928
-78.1928
-78.1928
-78.1928
-78.1925
-78.1925
-78.1925
-78.1925
-78.1922
-78.1922
-78.1922
-78.1922
-78.1918
-78.1918
-78.1918
-78.1918
-78.1915
-78.1915
-78.1915
-78.1915
-78.1912
-78.1912
-78.1912
-78.1912
-78.1909
-78.1909
-78.1909
-78.1909
-78.1905
-78.1905
-78.1905
-78.1905
-78.1902
-78.1902
-78.1902
-78.1902
-78.1899
-78.1899
-78.1899
-78.1899
-78.1895
-78.1895
-78.1895
-78.1895
-78.1892
-78.1892
-78.1892
-78.1892
-78.1889
-78.1889
-78.1889
-78.1889
-78.1885
-78.1885
-78.1885
-78.1885
-78.1882
-78.1882
-78.1882
-78.1882
-78.1879
-78.1879
-78.1879
-78.1879
-78.1876
-78.1876
-78.1876
-78.1876
-78.1872
-78.1872
-78.1872
-78.1872
-78.1869
-78.1869
-78.1869
-78.1869
-78.1866
-78.1866
-78.1866
-78.1866
-78.1862
-78.1862
-78.1862
-78.1862
-78.1859
-78.1859
-78.1859
-78.1859
-78.1856
-78.1856
-78.1856
-78.1856
-78.1852
-78.1852
-78.1852
-78.1852
-78.1849
-78.1849
-78.1849
-78.1849
-78.1846
-78.1846
-78.1846
-78.1846
-78.1843
-78.1843
-78.1843
-78.1843
-78.1839
-78.1839
-78.1839
-78.1839
-78.1836
-78.1836
-78.1836
-78.1836
-78.1833
-78.1833
-78.1833
-78.1833
-78.1829
-78.1829
-78.1829
-78.1829
-78.1826
-78.1826
-78.1826
-78.1826
-78.1823
-78.1823
-78.1823
-78.1823
-78.1819
-78.1819
-78.1819
-78.1819
-78.1816
-78.1816
-78.1816
-78.1816
-78.1813
-78.1813
-78.1813
-78.1813
-78.181
-78.181
-78.181
-78.181
-78.1806
-78.1806
-78.1806
-78.1806
-78.1803
-78.1803
-78.1803
-78.1803
-78.18
-78.18
-78.18
-78.18
-78.1796
-78.1796
-78.1796
-78.1796
-78.1793
-78.1793
-78.1793
-78.1793
-78.179
-78.179
-78.179
-78.179
-78.1786
-78.1786
-78.1786
-78.1786
-78.1783
-78.1783
-78.1783
-78.1783
-78.178
-78.178
-78.178
-78.178
-78.1777
-78.1777
-78.1777
-78.1777
-78.1773
-78.1773
-78.1773
-78.1773
-78.177
-78.177
-78.177
-78.177
-78.1767
-78.1767
-78.1767
-78.1767
-78.1763
-78.1763
-78.1763
-78.1763
-78.176
-78.176
-78.176
-78.176
-78.1757
-78.1757
-78.1757
-78.1757
-78.1753
-78.1753
-78.1753
-78.1753
-78.175
-78.175
-78.175
-78.175
-78.1747
-78.1747
-78.1747
-78.1747
-78.1744
-78.1744
-78.1744
-78.1744
-78.174
-78.174
-78.174
-78.174
-78.1737
-78.1737
-78.1737
-78.1737
-78.1734
-78.1734
-78.1734
-78.1734
-78.173
-78.173
-78.173
-78.173
-78.1727
-78.1727
-78.1727
-78.1727
-78.1724
-78.1724
-78.1724
-78.1724
-78.172
-78.172
-78.172
-78.172
-78.1717
-78.1717
-78.1717
-78.1717
-78.1714
-78.1714
-78.1714
-78.1714
-78.1711
-78.1711
-78.1711
-78.1711
-78.1707
-78.1707
-78.1707
-78.1707
-78.1704
-78.1704
-78.1704
-78.1704
-78.1701
-78.1701
-78.1701
-78.1701
-78.1697
-78.1697
-78.1697
-78.1697
-78.1694
-78.1694
-78.1694
-78.1694
-78.1691
-78.1691
-78.1691
-78.1691
-78.1687
-78.1687
-78.1687
-78.1687
-78.1684
-78.1684
-78.1684
-78.1684
-78.1681
-78.1681
-78.1681
-78.1681
-78.1678
-78.1678
-78.1678
-78.1678
-78.1674
-78.1674
-78.1674
-78.1674
-78.1671
-78.1671
-78.1671
-78.1671
-78.1668
-78.1668
-78.1668
-78.1668
-78.1664
-78.1664
-78.1664
-78.1664
-78.1661
-78.1661
-78.1661
-78.1661
-78.1658
-78.1658
-78.1658
-78.1658
-78.1654
-78.1654
-78.1654
-78.1654
-78.1651
-78.1651
-78.1651
-78.1651
-78.1648
-78.1648
-78.1648
-78.1648
-78.1645
-78.1645
-78.1645
-78.1645
-78.1641
-78.1641
-78.1641
-78.1641
-78.1638
-78.1638
-78.1638
-78.1638
-78.1635
-78.1635
-78.1635
-78.1635
-78.1631
-78.1631
-78.1631
-78.1631
-78.1628
-78.1628
-78.1628
-78.1628
-78.1625
-78.1625
-78.1625
-78.1625
-78.1621
-78.1621
-78.1621
-78.1621
-78.1618
-78.1618
-78.1618
-78.1618
-78.1615
-78.1615
-78.1615
-78.1615
-78.1612
-78.1612
-78.1612
-78.1612
-78.1608
-78.1608
-78.1608
-78.1608
-78.1605
-78.1605
-78.1605
-78.1605
-78.1602
-78.1602
-78.1602
-78.1602
-78.1598
-78.1598
-78.1598
-78.1598
-78.1595
-78.1595
-78.1595
-78.1595
-78.1592
-78.1592
-78.1592
-78.1592
-78.1588
-78.1588
-78.1588
-78.1588
-78.1585
-78.1585
-78.1585
-78.1585
-78.1582
-78.1582
-78.1582
-78.1582
-78.1579
-78.1579
-78.1579
-78.1579
-78.1575
-78.1575
-78.1575
-78.1575
-78.1572
-78.1572
-78.1572
-78.1572
-78.1569
-78.1569
-78.1569
-78.1569
-78.1565
-78.1565
-78.1565
-78.1565
-78.1562
-78.1562
-78.1562
-78.1562
-78.1559
-78.1559
-78.1559
-78.1559
-78.1555
-78.1555
-78.1555
-78.1555
-78.1552
-78.1552
-78.1552
-78.1552
-78.1549
-78.1549
-78.1549
-78.1549
-78.1546
-78.1546
-78.1546
-78.1546
-78.1542
-78.1542
-78.1542
-78.1542
-78.1539
-78.1539
-78.1539
-78.1539
-78.1536
-78.1536
-78.1536
-78.1536
-78.1532
-78.1532
-78.1532
-78.1532
-78.1529
-78.1529
-78.1529
-78.1529
-78.1526
-78.1526
-78.1526
-78.1526
-78.1522
-78.1522
-78.1522
-78.1522
-78.1519
-78.1519
-78.1519
-78.1519
-78.1516
-78.1516
-78.1516
-78.1516
-78.1513
-78.1513
-78.1513
-78.1513
-78.1509
-78.1509
-78.1509
-78.1509
-78.1506
-78.1506
-78.1506
-78.1506
-78.1503
-78.1503
-78.1503
-78.1503
-78.1499
-78.1499
-78.1499
-78.1499
-78.1496
-78.1496
-78.1496
-78.1496
-78.1493
-78.1493
-78.1493
-78.1493
-78.1489
-78.1489
-78.1489
-78.1489
-78.1486
-78.1486
-78.1486
-78.1486
-78.1483
-78.1483
-78.1483
-78.1483
-78.148
-78.148
-78.148
-78.148
-78.1476
-78.1476
-78.1476
-78.1476
-78.1473
-78.1473
-78.1473
-78.1473
-78.147
-78.147
-78.147
-78.147
-78.1466
-78.1466
-78.1466
-78.1466
-78.1463
-78.1463
-78.1463
-78.1463
-78.146
-78.146
-78.146
-78.146
-78.1456
-78.1456
-78.1456
-78.1456
-78.1453
-78.1453
-78.1453
-78.1453
-78.145
-78.145
-78.145
-78.145
-78.1447
-78.1447
-78.1447
-78.1447
-78.1443
-78.1443
-78.1443
-78.1443
-78.144
-78.144
-78.144
-78.144
-78.1437
-78.1437
-78.1437
-78.1437
-78.1433
-78.1433
-78.1433
-78.1433
-78.143
-78.143
-78.143
-78.143
-78.1427
-78.1427
-78.1427
-78.1427
-78.1423
-78.1423
-78.1423
-78.1423
-78.142
-78.142
-78.142
-78.142
-78.1417
-78.1417
-78.1417
-78.1417
-78.1414
-78.1414
-78.1414
-78.1414
-78.141
-78.141
-78.141
-78.141
-78.1407
-78.1407
-78.1407
-78.1407
-78.1404
-78.1404
-78.1404
-78.1404
-78.14
-78.14
-78.14
-78.14
-78.1397
-78.1397
-78.1397
-78.1397
-78.1394
-78.1394
-78.1394
-78.1394
-78.139
-78.139
-78.139
-78.139
-78.1387
-78.1387
-78.1387
-78.1387
-78.1384
-78.1384
-78.1384
-78.1384
-78.1381
-78.1381
-78.1381
-78.1381
-78.1377
-78.1377
-78.1377
-78.1377
-78.1374
-78.1374
-78.1374
-78.1374
-78.1371
-78.1371
-78.1371
-78.1371
-78.1367
-78.1367
-78.1367
-78.1367
-78.1364
-78.1364
-78.1364
-78.1364
-78.1361
-78.1361
-78.1361
-78.1361
-78.1357
-78.1357
-78.1357
-78.1357
-78.1354
-78.1354
-78.1354
-78.1354
-78.1351
-78.1351
-78.1351
-78.1351
-78.1348
-78.1348
-78.1348
-78.1348
-78.1344
-78.1344
-78.1344
-78.1344
-78.1341
-78.1341
-78.1341
-78.1341
-78.1338
-78.1338
-78.1338
-78.1338
-78.1334
-78.1334
-78.1334
-78.1334
-78.1331
-78.1331
-78.1331
-78.1331
-78.1328
-78.1328
-78.1328
-78.1328
-78.1324
-78.1324
-78.1324
-78.1324
-78.1321
-78.1321
-78.1321
-78.1321
-78.1318
-78.1318
-78.1318
-78.1318
-78.1315
-78.1315
-78.1315
-78.1315
-78.1311
-78.1311
-78.1311
-78.1311
-78.1308
-78.1308
-78.1308
-78.1308
-78.1305
-78.1305
-78.1305
-78.1305
-78.1301
-78.1301
-78.1301
-78.1301
-78.1298
-78.1298
-78.1298
-78.1298
-78.1295
-78.1295
-78.1295
-78.1295
-78.1291
-78.1291
-78.1291
-78.1291
-78.1288
-78.1288
-78.1288
-78.1288
-78.1285
-78.1285
-78.1285
-78.1285
-78.1282
-78.1282
-78.1282
-78.1282
-78.1278
-78.1278
-78.1278
-78.1278
-78.1275
-78.1275
-78.1275
-78.1275
-78.1272
-78.1272
-78.1272
-78.1272
-78.1268
-78.1268
-78.1268
-78.1268
-78.1265
-78.1265
-78.1265
-78.1265
-78.1262
-78.1262
-78.1262
-78.1262
-78.1258
-78.1258
-78.1258
-78.1258
-78.1255
-78.1255
-78.1255
-78.1255
-78.1252
-78.1252
-78.1252
-78.1252
-78.1249
-78.1249
-78.1249
-78.1249
-78.1245
-78.1245
-78.1245
-78.1245
-78.1242
-78.1242
-78.1242
-78.1242
-78.1239
-78.1239
-78.1239
-78.1239
-78.1235
-78.1235
-78.1235
-78.1235
-78.1232
-78.1232
-78.1232
-78.1232
-78.1229
-78.1229
-78.1229
-78.1229
-78.1225
-78.1225
-78.1225
-78.1225
-78.1222
-78.1222
-78.1222
-78.1222
-78.1219
-78.1219
-78.1219
-78.1219
-78.1216
-78.1216
-78.1216
-78.1216
-78.1212
-78.1212
-78.1212
-78.1212
-78.1209
-78.1209
-78.1209
-78.1209
-78.1206
-78.1206
-78.1206
-78.1206
-78.1202
-78.1202
-78.1202
-78.1202
-78.1199
-78.1199
-78.1199
-78.1199
-78.1196
-78.1196
-78.1196
-78.1196
-78.1192
-78.1192
-78.1192
-78.1192
-78.1189
-78.1189
-78.1189
-78.1189
-78.1186
-78.1186
-78.1186
-78.1186
-78.1183
-78.1183
-78.1183
-78.1183
-78.1179
-78.1179
-78.1179
-78.1179
-78.1176
-78.1176
-78.1176
-78.1176
-78.1173
-78.1173
-78.1173
-78.1173
-78.1169
-78.1169
-78.1169
-78.1169
-78.1166
-78.1166
-78.1166
-78.1166
-78.1163
-78.1163
-78.1163
-78.1163
-78.1159
-78.1159
-78.1159
-78.1159
-78.1156
-78.1156
-78.1156
-78.1156
-78.1153
-78.1153
-78.1153
-78.1153
-78.115
-78.115
-78.115
-78.115
-78.1146
-78.1146
-78.1146
-78.1146
-78.1143
-78.1143
-78.1143
-78.1143
-78.114
-78.114
-78.114
-78.114
-78.1136
-78.1136
-78.1136
-78.1136
-78.1133
-78.1133
-78.1133
-78.1133
-78.113
-78.113
-78.113
-78.113
-78.1126
-78.1126
-78.1126
-78.1126
-78.1123
-78.1123
-78.1123
-78.1123
-78.112
-78.112
-78.112
-78.112
-78.1117
-78.1117
-78.1117
-78.1117
-78.1113
-78.1113
-78.1113
-78.1113
-78.111
-78.111
-78.111
-78.111
-78.1107
-78.1107
-78.1107
-78.1107
-78.1103
-78.1103
-78.1103
-78.1103
-78.11
-78.11
-78.11
-78.11
-78.1097
-78.1097
-78.1097
-78.1097
-78.1093
-78.1093
-78.1093
-78.1093
-78.109
-78.109
-78.109
-78.109
-78.1087
-78.1087
-78.1087
-78.1087
-78.1084
-78.1084
-78.1084
-78.1084
-78.108
-78.108
-78.108
-78.108
-78.1077
-78.1077
-78.1077
-78.1077
-78.1074
-78.1074
-78.1074
-78.1074
-78.107
-78.107
-78.107
-78.107
-78.1067
-78.1067
-78.1067
-78.1067
-78.1064
-78.1064
-78.1064
-78.1064
-78.106
-78.106
-78.106
-78.106
-78.1057
-78.1057
-78.1057
-78.1057
-78.1054
-78.1054
-78.1054
-78.1054
-78.1051
-78.1051
-78.1051
-78.1051
-78.1047
-78.1047
-78.1047
-78.1047
-78.1044
-78.1044
-78.1044
-78.1044
-78.1041
-78.1041
-78.1041
-78.1041
-78.1037
-78.1037
-78.1037
-78.1037
-78.1034
-78.1034
-78.1034
-78.1034
-78.1031
-78.1031
-78.1031
-78.1031
-78.1027
-78.1027
-78.1027
-78.1027
-78.1024
-78.1024
-78.1024
-78.1024
-78.1021
-78.1021
-78.1021
-78.1021
-78.1018
-78.1018
-78.1018
-78.1018
-78.1014
-78.1014
-78.1014
-78.1014
-78.1011
-78.1011
-78.1011
-78.1011
-78.1008
-78.1008
-78.1008
-78.1008
-78.1004
-78.1004
-78.1004
-78.1004
-78.1001
-78.1001
-78.1001
-78.1001
-78.0998
-78.0998
-78.0998
-78.0998
-78.0994
-78.0994
-78.0994
-78.0994
-78.0991
-78.0991
-78.0991
-78.0991
-78.0988
-78.0988
-78.0988
-78.0988
-78.0985
-78.0985
-78.0985
-78.0985
-78.0981
-78.0981
-78.0981
-78.0981
-78.0978
-78.0978
-78.0978
-78.0978
-78.0975
-78.0975
-78.0975
-78.0975
-78.0971
-78.0971
-78.0971
-78.0971
-78.0968
-78.0968
-78.0968
-78.0968
-78.0965
-78.0965
-78.0965
-78.0965
-78.0961
-78.0961
-78.0961
-78.0961
-78.0958
-78.0958
-78.0958
-78.0958
-78.0955
-78.0955
-78.0955
-78.0955
-78.0952
-78.0952
-78.0952
-78.0952
-78.0948
-78.0948
-78.0948
-78.0948
-78.0945
-78.0945
-78.0945
-78.0945
-78.0942
-78.0942
-78.0942
-78.0942
-78.0938
-78.0938
-78.0938
-78.0938
-78.0935
-78.0935
-78.0935
-78.0935
-78.0932
-78.0932
-78.0932
-78.0932
-78.0928
-78.0928
-78.0928
-78.0928
-78.0925
-78.0925
-78.0925
-78.0925
-78.0922
-78.0922
-78.0922
-78.0922
-78.0919
-78.0919
-78.0919
-78.0919
-78.0915
-78.0915
-78.0915
-78.0915
-78.0912
-78.0912
-78.0912
-78.0912
-78.0909
-78.0909
-78.0909
-78.0909
-78.0905
-78.0905
-78.0905
-78.0905
-78.0902
-78.0902
-78.0902
-78.0902
-78.0899
-78.0899
-78.0899
-78.0899
-78.0895
-78.0895
-78.0895
-78.0895
-78.0892
-78.0892
-78.0892
-78.0892
-78.0889
-78.0889
-78.0889
-78.0889
-78.0886
-78.0886
-78.0886
-78.0886
-78.0882
-78.0882
-78.0882
-78.0882
-78.0879
-78.0879
-78.0879
-78.0879
-78.0876
-78.0876
-78.0876
-78.0876
-78.0872
-78.0872
-78.0872
-78.0872
-78.0869
-78.0869
-78.0869
-78.0869
-78.0866
-78.0866
-78.0866
-78.0866
-78.0862
-78.0862
-78.0862
-78.0862
-78.0859
-78.0859
-78.0859
-78.0859
-78.0856
-78.0856
-78.0856
-78.0856
-78.0853
-78.0853
-78.0853
-78.0853
-78.0849
-78.0849
-78.0849
-78.0849
-78.0846
-78.0846
-78.0846
-78.0846
-78.0843
-78.0843
-78.0843
-78.0843
-78.0839
-78.0839
-78.0839
-78.0839
-78.0836
-78.0836
-78.0836
-78.0836
-78.0833
-78.0833
-78.0833
-78.0833
-78.0829
-78.0829
-78.0829
-78.0829
-78.0826
-78.0826
-78.0826
-78.0826
-78.0823
-78.0823
-78.0823
-78.0823
-78.082
-78.082
-78.082
-78.082
-78.0816
-78.0816
-78.0816
-78.0816
-78.0813
-78.0813
-78.0813
-78.0813
-78.081
-78.081
-78.081
-78.081
-78.0806
-78.0806
-78.0806
-78.0806
-78.0803
-78.0803
-78.0803
-78.0803
-78.08
-78.08
-78.08
-78.08
-78.0796
-78.0796
-78.0796
-78.0796
-78.0793
-78.0793
-78.0793
-78.0793
-78.079
-78.079
-78.079
-78.079
-78.0787
-78.0787
-78.0787
-78.0787
-78.0783
-78.0783
-78.0783
-78.0783
-78.078
-78.078
-78.078
-78.078
-78.0777
-78.0777
-78.0777
-78.0777
-78.0773
-78.0773
-78.0773
-78.0773
-78.077
-78.077
-78.077
-78.077
-78.0767
-78.0767
-78.0767
-78.0767
-78.0763
-78.0763
-78.0763
-78.0763
-78.076
-78.076
-78.076
-78.076
-78.0757
-78.0757
-78.0757
-78.0757
-78.0754
-78.0754
-78.0754
-78.0754
-78.075
-78.075
-78.075
-78.075
-78.0747
-78.0747
-78.0747
-78.0747
-78.0744
-78.0744
-78.0744
-78.0744
-78.074
-78.074
-78.074
-78.074
-78.0737
-78.0737
-78.0737
-78.0737
-78.0734
-78.0734
-78.0734
-78.0734
-78.073
-78.073
-78.073
-78.073
-78.0727
-78.0727
-78.0727
-78.0727
-78.0724
-78.0724
-78.0724
-78.0724
-78.0721
-78.0721
-78.0721
-78.0721
-78.0717
-78.0717
-78.0717
-78.0717
-78.0714
-78.0714
-78.0714
-78.0714
-78.0711
-78.0711
-78.0711
-78.0711
-78.0707
-78.0707
-78.0707
-78.0707
-78.0704
-78.0704
-78.0704
-78.0704
-78.0701
-78.0701
-78.0701
-78.0701
-78.0697
-78.0697
-78.0697
-78.0697
-78.0694
-78.0694
-78.0694
-78.0694
-78.0691
-78.0691
-78.0691
-78.0691
-78.0688
-78.0688
-78.0688
-78.0688
-78.0684
-78.0684
-78.0684
-78.0684
-78.0681
-78.0681
-78.0681
-78.0681
-78.0678
-78.0678
-78.0678
-78.0678
-78.0674
-78.0674
-78.0674
-78.0674
-78.0671
-78.0671
-78.0671
-78.0671
-78.0668
-78.0668
-78.0668
-78.0668
-78.0664
-78.0664
-78.0664
-78.0664
-78.0661
-78.0661
-78.0661
-78.0661
-78.0658
-78.0658
-78.0658
-78.0658
-78.0655
-78.0655
-78.0655
-78.0655
-78.0651
-78.0651
-78.0651
-78.0651
-78.0648
-78.0648
-78.0648
-78.0648
-78.0645
-78.0645
-78.0645
-78.0645
-78.0641
-78.0641
-78.0641
-78.0641
-78.0638
-78.0638
-78.0638
-78.0638
-78.0635
-78.0635
-78.0635
-78.0635
-78.0631
-78.0631
-78.0631
-78.0631
-78.0628
-78.0628
-78.0628
-78.0628
-78.0625
-78.0625
-78.0625
-78.0625
-78.0622
-78.0622
-78.0622
-78.0622
-78.0618
-78.0618
-78.0618
-78.0618
-78.0615
-78.0615
-78.0615
-78.0615
-78.0612
-78.0612
-78.0612
-78.0612
-78.0608
-78.0608
-78.0608
-78.0608
-78.0605
-78.0605
-78.0605
-78.0605
-78.0602
-78.0602
-78.0602
-78.0602
-78.0598
-78.0598
-78.0598
-78.0598
-78.0595
-78.0595
-78.0595
-78.0595
-78.0592
-78.0592
-78.0592
-78.0592
-78.0589
-78.0589
-78.0589
-78.0589
-78.0585
-78.0585
-78.0585
-78.0585
-78.0582
-78.0582
-78.0582
-78.0582
-78.0579
-78.0579
-78.0579
-78.0579
-78.0575
-78.0575
-78.0575
-78.0575
-78.0572
-78.0572
-78.0572
-78.0572
-78.0569
-78.0569
-78.0569
-78.0569
-78.0565
-78.0565
-78.0565
-78.0565
-78.0562
-78.0562
-78.0562
-78.0562
-78.0559
-78.0559
-78.0559
-78.0559
-78.0556
-78.0556
-78.0556
-78.0556
-78.0552
-78.0552
-78.0552
-78.0552
-78.0549
-78.0549
-78.0549
-78.0549
-78.0546
-78.0546
-78.0546
-78.0546
-78.0542
-78.0542
-78.0542
-78.0542
-78.0539
-78.0539
-78.0539
-78.0539
-78.0536
-78.0536
-78.0536
-78.0536
-78.0532
-78.0532
-78.0532
-78.0532
-78.0529
-78.0529
-78.0529
-78.0529
-78.0526
-78.0526
-78.0526
-78.0526
-78.0523
-78.0523
-78.0523
-78.0523
-78.0519
-78.0519
-78.0519
-78.0519
-78.0516
-78.0516
-78.0516
-78.0516
-78.0513
-78.0513
-78.0513
-78.0513
-78.0509
-78.0509
-78.0509
-78.0509
-78.0506
-78.0506
-78.0506
-78.0506
-78.0503
-78.0503
-78.0503
-78.0503
-78.0499
-78.0499
-78.0499
-78.0499
-78.0496
-78.0496
-78.0496
-78.0496
-78.0493
-78.0493
-78.0493
-78.0493
-78.049
-78.049
-78.049
-78.049
-78.0486
-78.0486
-78.0486
-78.0486
-78.0483
-78.0483
-78.0483
-78.0483
-78.048
-78.048
-78.048
-78.048
-78.0476
-78.0476
-78.0476
-78.0476
-78.0473
-78.0473
-78.0473
-78.0473
-78.047
-78.047
-78.047
-78.047
-78.0466
-78.0466
-78.0466
-78.0466
-78.0463
-78.0463
-78.0463
-78.0463
-78.046
-78.046
-78.046
-78.046
-78.0457
-78.0457
-78.0457
-78.0457
-78.0453
-78.0453
-78.0453
-78.0453
-78.045
-78.045
-78.045
-78.045
-78.0447
-78.0447
-78.0447
-78.0447
-78.0443
-78.0443
-78.0443
-78.0443
-78.044
-78.044
-78.044
-78.044
-78.0437
-78.0437
-78.0437
-78.0437
-78.0433
-78.0433
-78.0433
-78.0433
-78.043
-78.043
-78.043
-78.043
-78.0427
-78.0427
-78.0427
-78.0427
-78.0424
-78.0424
-78.0424
-78.0424
-78.042
-78.042
-78.042
-78.042
-78.0417
-78.0417
-78.0417
-78.0417
-78.0414
-78.0414
-78.0414
-78.0414
-78.041
-78.041
-78.041
-78.041
-78.0407
-78.0407
-78.0407
-78.0407
-78.0404
-78.0404
-78.0404
-78.0404
-78.04
-78.04
-78.04
-78.04
-78.0397
-78.0397
-78.0397
-78.0397
-78.0394
-78.0394
-78.0394
-78.0394
-78.0391
-78.0391
-78.0391
-78.0391
-78.0387
-78.0387
-78.0387
-78.0387
-78.0384
-78.0384
-78.0384
-78.0384
-78.0381
-78.0381
-78.0381
-78.0381
-78.0377
-78.0377
-78.0377
-78.0377
-78.0374
-78.0374
-78.0374
-78.0374
-78.0371
-78.0371
-78.0371
-78.0371
-78.0367
-78.0367
-78.0367
-78.0367
-78.0364
-78.0364
-78.0364
-78.0364
-78.0361
-78.0361
-78.0361
-78.0361
-78.0358
-78.0358
-78.0358
-78.0358
-78.0354
-78.0354
-78.0354
-78.0354
-78.0351
-78.0351
-78.0351
-78.0351
-78.0348
-78.0348
-78.0348
-78.0348
-78.0344
-78.0344
-78.0344
-78.0344
-78.0341
-78.0341
-78.0341
-78.0341
-78.0338
-78.0338
-78.0338
-78.0338
-78.0334
-78.0334
-78.0334
-78.0334
-78.0331
-78.0331
-78.0331
-78.0331
-78.0328
-78.0328
-78.0328
-78.0328
-78.0325
-78.0325
-78.0325
-78.0325
-78.0321
-78.0321
-78.0321
-78.0321
-78.0318
-78.0318
-78.0318
-78.0318
-78.0315
-78.0315
-78.0315
-78.0315
-78.0311
-78.0311
-78.0311
-78.0311
-78.0308
-78.0308
-78.0308
-78.0308
-78.0305
-78.0305
-78.0305
-78.0305
-78.0301
-78.0301
-78.0301
-78.0301
-78.0298
-78.0298
-78.0298
-78.0298
-78.0295
-78.0295
-78.0295
-78.0295
-78.0292
-78.0292
-78.0292
-78.0292
-78.0288
-78.0288
-78.0288
-78.0288
-78.0285
-78.0285
-78.0285
-78.0285
-78.0282
-78.0282
-78.0282
-78.0282
-78.0278
-78.0278
-78.0278
-78.0278
-78.0275
-78.0275
-78.0275
-78.0275
-78.0272
-78.0272
-78.0272
-78.0272
-78.0268
-78.0268
-78.0268
-78.0268
-78.0265
-78.0265
-78.0265
-78.0265
-78.0262
-78.0262
-78.0262
-78.0262
-78.0259
-78.0259
-78.0259
-78.0259
-78.0255
-78.0255
-78.0255
-78.0255
-78.0252
-78.0252
-78.0252
-78.0252
-78.0249
-78.0249
-78.0249
-78.0249
-78.0245
-78.0245
-78.0245
-78.0245
-78.0242
-78.0242
-78.0242
-78.0242
-78.0239
-78.0239
-78.0239
-78.0239
-78.0235
-78.0235
-78.0235
-78.0235
-78.0232
-78.0232
-78.0232
-78.0232
-78.0229
-78.0229
-78.0229
-78.0229
-78.0226
-78.0226
-78.0226
-78.0226
-78.0222
-78.0222
-78.0222
-78.0222
-78.0219
-78.0219
-78.0219
-78.0219
-78.0216
-78.0216
-78.0216
-78.0216
-78.0212
-78.0212
-78.0212
-78.0212
-78.0209
-78.0209
-78.0209
-78.0209
-78.0206
-78.0206
-78.0206
-78.0206
-78.0202
-78.0202
-78.0202
-78.0202
-78.0199
-78.0199
-78.0199
-78.0199
-78.0196
-78.0196
-78.0196
-78.0196
-78.0193
-78.0193
-78.0193
-78.0193
-78.0189
-78.0189
-78.0189
-78.0189
-78.0186
-78.0186
-78.0186
-78.0186
-78.0183
-78.0183
-78.0183
-78.0183
-78.0179
-78.0179
-78.0179
-78.0179
-78.0176
-78.0176
-78.0176
-78.0176
-78.0173
-78.0173
-78.0173
-78.0173
-78.0169
-78.0169
-78.0169
-78.0169
-78.0166
-78.0166
-78.0166
-78.0166
-78.0163
-78.0163
-78.0163
-78.0163
-78.016
-78.016
-78.016
-78.016
-78.0156
-78.0156
-78.0156
-78.0156
-78.0153
-78.0153
-78.0153
-78.0153
-78.015
-78.015
-78.015
-78.015
-78.0146
-78.0146
-78.0146
-78.0146
-78.0143
-78.0143
-78.0143
-78.0143
-78.014
-78.014
-78.014
-78.014
-78.0136
-78.0136
-78.0136
-78.0136
-78.0133
-78.0133
-78.0133
-78.0133
-78.013
-78.013
-78.013
-78.013
-78.0127
-78.0127
-78.0127
-78.0127
-78.0123
-78.0123
-78.0123
-78.0123
-78.012
-78.012
-78.012
-78.012
-78.0117
-78.0117
-78.0117
-78.0117
-78.0113
-78.0113
-78.0113
-78.0113
-78.011
-78.011
-78.011
-78.011
-78.0107
-78.0107
-78.0107
-78.0107
-78.0103
-78.0103
-78.0103
-78.0103
-78.01
-78.01
-78.01
-78.01
-78.0097
-78.0097
-78.0097
-78.0097
-78.0094
-78.0094
-78.0094
-78.0094
-78.009
-78.009
-78.009
-78.009
-78.0087
-78.0087
-78.0087
-78.0087
-78.0084
-78.0084
-78.0084
-78.0084
-78.008
-78.008
-78.008
-78.008
-78.0077
-78.0077
-78.0077
-78.0077
-78.0074
-78.0074
-78.0074
-78.0074
-78.007
-78.007
-78.007
-78.007
-78.0067
-78.0067
-78.0067
-78.0067
-78.0064
-78.0064
-78.0064
-78.0064
-78.0061
-78.0061
-78.0061
-78.0061
-78.0057
-78.0057
-78.0057
-78.0057
-78.0054
-78.0054
-78.0054
-78.0054
-78.0051
-78.0051
-78.0051
-78.0051
-78.0047
-78.0047
-78.0047
-78.0047
-78.0044
-78.0044
-78.0044
-78.0044
-78.0041
-78.0041
-78.0041
-78.0041
-78.0037
-78.0037
-78.0037
-78.0037
-78.0034
-78.0034
-78.0034
-78.0034
-78.0031
-78.0031
-78.0031
-78.0031
-78.0028
-78.0028
-78.0028
-78.0028
-78.0024
-78.0024
-78.0024
-78.0024
-78.0021
-78.0021
-78.0021
-78.0021
-78.0018
-78.0018
-78.0018
-78.0018
-78.0014
-78.0014
-78.0014
-78.0014
-78.0011
-78.0011
-78.0011
-78.0011
-78.0008
-78.0008
-78.0008
-78.0008
-78.0004
-78.0004
-78.0004
-78.0004
-78.0001
-78.0001
-78.0001
-78.0001
-77.9998
-77.9998
-77.9998
-77.9998
-77.9995
-77.9995
-77.9995
-77.9995
-77.9991
-77.9991
-77.9991
-77.9991
-77.9988
-77.9988
-77.9988
-77.9988
-77.9985
-77.9985
-77.9985
-77.9985
-77.9981
-77.9981
-77.9981
-77.9981
-77.9978
-77.9978
-77.9978
-77.9978
-77.9975
-77.9975
-77.9975
-77.9975
-77.9971
-77.9971
-77.9971
-77.9971
-77.9968
-77.9968
-77.9968
-77.9968
-77.9965
-77.9965
-77.9965
-77.9965
-77.9962
-77.9962
-77.9962
-77.9962
-77.9958
-77.9958
-77.9958
-77.9958
-77.9955
-77.9955
-77.9955
-77.9955
-77.9952
-77.9952
-77.9952
-77.9952
-77.9948
-77.9948
-77.9948
-77.9948
-77.9945
-77.9945
-77.9945
-77.9945
-77.9942
-77.9942
-77.9942
-77.9942
-77.9938
-77.9938
-77.9938
-77.9938
-77.9935
-77.9935
-77.9935
-77.9935
-77.9932
-77.9932
-77.9932
-77.9932
-77.9929
-77.9929
-77.9929
-77.9929
-77.9925
-77.9925
-77.9925
-77.9925
-77.9922
-77.9922
-77.9922
-77.9922
-77.9919
-77.9919
-77.9919
-77.9919
-77.9915
-77.9915
-77.9915
-77.9915
-77.9912
-77.9912
-77.9912
-77.9912
-77.9909
-77.9909
-77.9909
-77.9909
-77.9905
-77.9905
-77.9905
-77.9905
-77.9902
-77.9902
-77.9902
-77.9902
-77.9899
-77.9899
-77.9899
-77.9899
-77.9896
-77.9896
-77.9896
-77.9896
-77.9892
-77.9892
-77.9892
-77.9892
-77.9889
-77.9889
-77.9889
-77.9889
-77.9886
-77.9886
-77.9886
-77.9886
-77.9882
-77.9882
-77.9882
-77.9882
-77.9879
-77.9879
-77.9879
-77.9879
-77.9876
-77.9876
-77.9876
-77.9876
-77.9872
-77.9872
-77.9872
-77.9872
-77.9869
-77.9869
-77.9869
-77.9869
-77.9866
-77.9866
-77.9866
-77.9866
-77.9863
-77.9863
-77.9863
-77.9863
-77.9859
-77.9859
-77.9859
-77.9859
-77.9856
-77.9856
-77.9856
-77.9856
-77.9853
-77.9853
-77.9853
-77.9853
-77.9849
-77.9849
-77.9849
-77.9849
-77.9846
-77.9846
-77.9846
-77.9846
-77.9843
-77.9843
-77.9843
-77.9843
-77.9839
-77.9839
-77.9839
-77.9839
-77.9836
-77.9836
-77.9836
-77.9836
-77.9833
-77.9833
-77.9833
-77.9833
-77.983
-77.983
-77.983
-77.983
-77.9826
-77.9826
-77.9826
-77.9826
-77.9823
-77.9823
-77.9823
-77.9823
-77.982
-77.982
-77.982
-77.982
-77.9816
-77.9816
-77.9816
-77.9816
-77.9813
-77.9813
-77.9813
-77.9813
-77.981
-77.981
-77.981
-77.981
-77.9806
-77.9806
-77.9806
-77.9806
-77.9803
-77.9803
-77.9803
-77.9803
-77.98
-77.98
-77.98
-77.98
-77.9797
-77.9797
-77.9797
-77.9797
-77.9793
-77.9793
-77.9793
-77.9793
-77.979
-77.979
-77.979
-77.979
-77.9787
-77.9787
-77.9787
-77.9787
-77.9783
-77.9783
-77.9783
-77.9783
-77.978
-77.978
-77.978
-77.978
-77.9777
-77.9777
-77.9777
-77.9777
-77.9773
-77.9773
-77.9773
-77.9773
-77.977
-77.977
-77.977
-77.977
-77.9767
-77.9767
-77.9767
-77.9767
-77.9764
-77.9764
-77.9764
-77.9764
-77.976
-77.976
-77.976
-77.976
-77.9757
-77.9757
-77.9757
-77.9757
-77.9754
-77.9754
-77.9754
-77.9754
-77.975
-77.975
-77.975
-77.975
-77.9747
-77.9747
-77.9747
-77.9747
-77.9744
-77.9744
-77.9744
-77.9744
-77.974
-77.974
-77.974
-77.974
-77.9737
-77.9737
-77.9737
-77.9737
-77.9734
-77.9734
-77.9734
-77.9734
-77.9731
-77.9731
-77.9731
-77.9731
-77.9727
-77.9727
-77.9727
-77.9727
-77.9724
-77.9724
-77.9724
-77.9724
-77.9721
-77.9721
-77.9721
-77.9721
-77.9717
-77.9717
-77.9717
-77.9717
-77.9714
-77.9714
-77.9714
-77.9714
-77.9711
-77.9711
-77.9711
-77.9711
-77.9707
-77.9707
-77.9707
-77.9707
-77.9704
-77.9704
-77.9704
-77.9704
-77.9701
-77.9701
-77.9701
-77.9701
-77.9698
-77.9698
-77.9698
-77.9698
-77.9694
-77.9694
-77.9694
-77.9694
-77.9691
-77.9691
-77.9691
-77.9691
-77.9688
-77.9688
-77.9688
-77.9688
-77.9684
-77.9684
-77.9684
-77.9684
-77.9681
-77.9681
-77.9681
-77.9681
-77.9678
-77.9678
-77.9678
-77.9678
-77.9674
-77.9674
-77.9674
-77.9674
-77.9671
-77.9671
-77.9671
-77.9671
-77.9668
-77.9668
-77.9668
-77.9668
-77.9665
-77.9665
-77.9665
-77.9665
-77.9661
-77.9661
-77.9661
-77.9661
-77.9658
-77.9658
-77.9658
-77.9658
-77.9655
-77.9655
-77.9655
-77.9655
-77.9651
-77.9651
-77.9651
-77.9651
-77.9648
-77.9648
-77.9648
-77.9648
-77.9645
-77.9645
-77.9645
-77.9645
-77.9641
-77.9641
-77.9641
-77.9641
-77.9638
-77.9638
-77.9638
-77.9638
-77.9635
-77.9635
-77.9635
-77.9635
-77.9632
-77.9632
-77.9632
-77.9632
-77.9628
-77.9628
-77.9628
-77.9628
-77.9625
-77.9625
-77.9625
-77.9625
-77.9622
-77.9622
-77.9622
-77.9622
-77.9618
-77.9618
-77.9618
-77.9618
-77.9615
-77.9615
-77.9615
-77.9615
-77.9612
-77.9612
-77.9612
-77.9612
-77.9608
-77.9608
-77.9608
-77.9608
-77.9605
-77.9605
-77.9605
-77.9605
-77.9602
-77.9602
-77.9602
-77.9602
-77.9599
-77.9599
-77.9599
-77.9599
-77.9595
-77.9595
-77.9595
-77.9595
-77.9592
-77.9592
-77.9592
-77.9592
-77.9589
-77.9589
-77.9589
-77.9589
-77.9585
-77.9585
-77.9585
-77.9585
-77.9582
-77.9582
-77.9582
-77.9582
-77.9579
-77.9579
-77.9579
-77.9579
-77.9575
-77.9575
-77.9575
-77.9575
-77.9572
-77.9572
-77.9572
-77.9572
-77.9569
-77.9569
-77.9569
-77.9569
-77.9566
-77.9566
-77.9566
-77.9566
-77.9562
-77.9562
-77.9562
-77.9562
-77.9559
-77.9559
-77.9559
-77.9559
-77.9556
-77.9556
-77.9556
-77.9556
-77.9552
-77.9552
-77.9552
-77.9552
-77.9549
-77.9549
-77.9549
-77.9549
-77.9546
-77.9546
-77.9546
-77.9546
-77.9542
-77.9542
-77.9542
-77.9542
-77.9539
-77.9539
-77.9539
-77.9539
-77.9536
-77.9536
-77.9536
-77.9536
-77.9533
-77.9533
-77.9533
-77.9533
-77.9529
-77.9529
-77.9529
-77.9529
-77.9526
-77.9526
-77.9526
-77.9526
-77.9523
-77.9523
-77.9523
-77.9523
-77.9519
-77.9519
-77.9519
-77.9519
-77.9516
-77.9516
-77.9516
-77.9516
-77.9513
-77.9513
-77.9513
-77.9513
-77.9509
-77.9509
-77.9509
-77.9509
-77.9506
-77.9506
-77.9506
-77.9506
-77.9503
-77.9503
-77.9503
-77.9503
-77.95
-77.95
-77.95
-77.95
-77.9496
-77.9496
-77.9496
-77.9496
-77.9493
-77.9493
-77.9493
-77.9493
-77.949
-77.949
-77.949
-77.949
-77.9486
-77.9486
-77.9486
-77.9486
-77.9483
-77.9483
-77.9483
-77.9483
-77.948
-77.948
-77.948
-77.948
-77.9476
-77.9476
-77.9476
-77.9476
-77.9473
-77.9473
-77.9473
-77.9473
-77.947
-77.947
-77.947
-77.947
-77.9467
-77.9467
-77.9467
-77.9467
-77.9463
-77.9463
-77.9463
-77.9463
-77.946
-77.946
-77.946
-77.946
-77.9457
-77.9457
-77.9457
-77.9457
-77.9453
-77.9453
-77.9453
-77.9453
-77.945
-77.945
-77.945
-77.945
-77.9447
-77.9447
-77.9447
-77.9447
-77.9443
-77.9443
-77.9443
-77.9443
-77.944
-77.944
-77.944
-77.944
-77.9437
-77.9437
-77.9437
-77.9437
-77.9434
-77.9434
-77.9434
-77.9434
-77.943
-77.943
-77.943
-77.943
-77.9427
-77.9427
-77.9427
-77.9427
-77.9424
-77.9424
-77.9424
-77.9424
-77.942
-77.942
-77.942
-77.942
-77.9417
-77.9417
-77.9417
-77.9417
-77.9414
-77.9414
-77.9414
-77.9414
-77.941
-77.941
-77.941
-77.941
-77.9407
-77.9407
-77.9407
-77.9407
-77.9404
-77.9404
-77.9404
-77.9404
-77.9401
-77.9401
-77.9401
-77.9401
-77.9397
-77.9397
-77.9397
-77.9397
-77.9394
-77.9394
-77.9394
-77.9394
-77.9391
-77.9391
-77.9391
-77.9391
-77.9387
-77.9387
-77.9387
-77.9387
-77.9384
-77.9384
-77.9384
-77.9384
-77.9381
-77.9381
-77.9381
-77.9381
-77.9377
-77.9377
-77.9377
-77.9377
-77.9374
-77.9374
-77.9374
-77.9374
-77.9371
-77.9371
-77.9371
-77.9371
-77.9368
-77.9368
-77.9368
-77.9368
-77.9364
-77.9364
-77.9364
-77.9364
-77.9361
-77.9361
-77.9361
-77.9361
-77.9358
-77.9358
-77.9358
-77.9358
-77.9354
-77.9354
-77.9354
-77.9354
-77.9351
-77.9351
-77.9351
-77.9351
-77.9348
-77.9348
-77.9348
-77.9348
-77.9344
-77.9344
-77.9344
-77.9344
-77.9341
-77.9341
-77.9341
-77.9341
-77.9338
-77.9338
-77.9338
-77.9338
-77.9335
-77.9335
-77.9335
-77.9335
-77.9331
-77.9331
-77.9331
-77.9331
-77.9328
-77.9328
-77.9328
-77.9328
-77.9325
-77.9325
-77.9325
-77.9325
-77.9321
-77.9321
-77.9321
-77.9321
-77.9318
-77.9318
-77.9318
-77.9318
-77.9315
-77.9315
-77.9315
-77.9315
-77.9311
-77.9311
-77.9311
-77.9311
-77.9308
-77.9308
-77.9308
-77.9308
-77.9305
-77.9305
-77.9305
-77.9305
-77.9302
-77.9302
-77.9302
-77.9302
-77.9298
-77.9298
-77.9298
-77.9298
-77.9295
-77.9295
-77.9295
-77.9295
-77.9292
-77.9292
-77.9292
-77.9292
-77.9288
-77.9288
-77.9288
-77.9288
-77.9285
-77.9285
-77.9285
-77.9285
-77.9282
-77.9282
-77.9282
-77.9282
-77.9278
-77.9278
-77.9278
-77.9278
-77.9275
-77.9275
-77.9275
-77.9275
-77.9272
-77.9272
-77.9272
-77.9272
-77.9269
-77.9269
-77.9269
-77.9269
-77.9265
-77.9265
-77.9265
-77.9265
-77.9262
-77.9262
-77.9262
-77.9262
-77.9259
-77.9259
-77.9259
-77.9259
-77.9255
-77.9255
-77.9255
-77.9255
-77.9252
-77.9252
-77.9252
-77.9252
-77.9249
-77.9249
-77.9249
-77.9249
-77.9245
-77.9245
-77.9245
-77.9245
-77.9242
-77.9242
-77.9242
-77.9242
-77.9239
-77.9239
-77.9239
-77.9239
-77.9236
-77.9236
-77.9236
-77.9236
-77.9232
-77.9232
-77.9232
-77.9232
-77.9229
-77.9229
-77.9229
-77.9229
-77.9226
-77.9226
-77.9226
-77.9226
-77.9222
-77.9222
-77.9222
-77.9222
-77.9219
-77.9219
-77.9219
-77.9219
-77.9216
-77.9216
-77.9216
-77.9216
-77.9212
-77.9212
-77.9212
-77.9212
-77.9209
-77.9209
-77.9209
-77.9209
-77.9206
-77.9206
-77.9206
-77.9206
-77.9203
-77.9203
-77.9203
-77.9203
-77.9199
-77.9199
-77.9199
-77.9199
-77.9196
-77.9196
-77.9196
-77.9196
-77.9193
-77.9193
-77.9193
-77.9193
-77.9189
-77.9189
-77.9189
-77.9189
-77.9186
-77.9186
-77.9186
-77.9186
-77.9183
-77.9183
-77.9183
-77.9183
-77.9179
-77.9179
-77.9179
-77.9179
-77.9176
-77.9176
-77.9176
-77.9176
-77.9173
-77.9173
-77.9173
-77.9173
-77.917
-77.917
-77.917
-77.917
-77.9166
-77.9166
-77.9166
-77.9166
-77.9163
-77.9163
-77.9163
-77.9163
-77.916
-77.916
-77.916
-77.916
-77.9156
-77.9156
-77.9156
-77.9156
-77.9153
-77.9153
-77.9153
-77.9153
-77.915
-77.915
-77.915
-77.915
-77.9146
-77.9146
-77.9146
-77.9146
-77.9143
-77.9143
-77.9143
-77.9143
-77.914
-77.914
-77.914
-77.914
-77.9137
-77.9137
-77.9137
-77.9137
-77.9133
-77.9133
-77.9133
-77.9133
-77.913
-77.913
-77.913
-77.913
-77.9127
-77.9127
-77.9127
-77.9127
-77.9123
-77.9123
-77.9123
-77.9123
-77.912
-77.912
-77.912
-77.912
-77.9117
-77.9117
-77.9117
-77.9117
-77.9113
-77.9113
-77.9113
-77.9113
-77.911
-77.911
-77.911
-77.911
-77.9107
-77.9107
-77.9107
-77.9107
-77.9104
-77.9104
-77.9104
-77.9104
-77.91
-77.91
-77.91
-77.91
-77.9097
-77.9097
-77.9097
-77.9097
-77.9094
-77.9094
-77.9094
-77.9094
-77.909
-77.909
-77.909
-77.909
-77.9087
-77.9087
-77.9087
-77.9087
-77.9084
-77.9084
-77.9084
-77.9084
-77.908
-77.908
-77.908
-77.908
-77.9077
-77.9077
-77.9077
-77.9077
-77.9074
-77.9074
-77.9074
-77.9074
-77.9071
-77.9071
-77.9071
-77.9071
-77.9067
-77.9067
-77.9067
-77.9067
-77.9064
-77.9064
-77.9064
-77.9064
-77.9061
-77.9061
-77.9061
-77.9061
-77.9057
-77.9057
-77.9057
-77.9057
-77.9054
-77.9054
-77.9054
-77.9054
-77.9051
-77.9051
-77.9051
-77.9051
-77.9047
-77.9047
-77.9047
-77.9047
-77.9044
-77.9044
-77.9044
-77.9044
-77.9041
-77.9041
-77.9041
-77.9041
-77.9038
-77.9038
-77.9038
-77.9038
-77.9034
-77.9034
-77.9034
-77.9034
-77.9031
-77.9031
-77.9031
-77.9031
-77.9028
-77.9028
-77.9028
-77.9028
-77.9024
-77.9024
-77.9024
-77.9024
-77.9021
-77.9021
-77.9021
-77.9021
-77.9018
-77.9018
-77.9018
-77.9018
-77.9014
-77.9014
-77.9014
-77.9014
-77.9011
-77.9011
-77.9011
-77.9011
-77.9008
-77.9008
-77.9008
-77.9008
-77.9005
-77.9005
-77.9005
-77.9005
-77.9001
-77.9001
-77.9001
-77.9001
-77.8998
-77.8998
-77.8998
-77.8998
-77.8995
-77.8995
-77.8995
-77.8995
-77.8991
-77.8991
-77.8991
-77.8991
-77.8988
-77.8988
-77.8988
-77.8988
-77.8985
-77.8985
-77.8985
-77.8985
-77.8981
-77.8981
-77.8981
-77.8981
-77.8978
-77.8978
-77.8978
-77.8978
-77.8975
-77.8975
-77.8975
-77.8975
-77.8972
-77.8972
-77.8972
-77.8972
-77.8968
-77.8968
-77.8968
-77.8968
-77.8965
-77.8965
-77.8965
-77.8965
-77.8962
-77.8962
-77.8962
-77.8962
-77.8958
-77.8958
-77.8958
-77.8958
-77.8955
-77.8955
-77.8955
-77.8955
-77.8952
-77.8952
-77.8952
-77.8952
-77.8948
-77.8948
-77.8948
-77.8948
-77.8945
-77.8945
-77.8945
-77.8945
-77.8942
-77.8942
-77.8942
-77.8942
-77.8939
-77.8939
-77.8939
-77.8939
-77.8935
-77.8935
-77.8935
-77.8935
-77.8932
-77.8932
-77.8932
-77.8932
-77.8929
-77.8929
-77.8929
-77.8929
-77.8925
-77.8925
-77.8925
-77.8925
-77.8922
-77.8922
-77.8922
-77.8922
-77.8919
-77.8919
-77.8919
-77.8919
-77.8915
-77.8915
-77.8915
-77.8915
-77.8912
-77.8912
-77.8912
-77.8912
-77.8909
-77.8909
-77.8909
-77.8909
-77.8906
-77.8906
-77.8906
-77.8906
-77.8902
-77.8902
-77.8902
-77.8902
-77.8899
-77.8899
-77.8899
-77.8899
-77.8896
-77.8896
-77.8896
-77.8896
-77.8892
-77.8892
-77.8892
-77.8892
-77.8889
-77.8889
-77.8889
-77.8889
-77.8886
-77.8886
-77.8886
-77.8886
-77.8882
-77.8882
-77.8882
-77.8882
-77.8879
-77.8879
-77.8879
-77.8879
-77.8876
-77.8876
-77.8876
-77.8876
-77.8873
-77.8873
-77.8873
-77.8873
-77.8869
-77.8869
-77.8869
-77.8869
-77.8866
-77.8866
-77.8866
-77.8866
-77.8863
-77.8863
-77.8863
-77.8863
-77.8859
-77.8859
-77.8859
-77.8859
-77.8856
-77.8856
-77.8856
-77.8856
-77.8853
-77.8853
-77.8853
-77.8853
-77.8849
-77.8849
-77.8849
-77.8849
-77.8846
-77.8846
-77.8846
-77.8846
-77.8843
-77.8843
-77.8843
-77.8843
-77.884
-77.884
-77.884
-77.884
-77.8836
-77.8836
-77.8836
-77.8836
-77.8833
-77.8833
-77.8833
-77.8833
-77.883
-77.883
-77.883
-77.883
-77.8826
-77.8826
-77.8826
-77.8826
-77.8823
-77.8823
-77.8823
-77.8823
-77.882
-77.882
-77.882
-77.882
-77.8816
-77.8816
-77.8816
-77.8816
-77.8813
-77.8813
-77.8813
-77.8813
-77.881
-77.881
-77.881
-77.881
-77.8807
-77.8807
-77.8807
-77.8807
-77.8803
-77.8803
-77.8803
-77.8803
-77.88
-77.88
-77.88
-77.88
-77.8797
-77.8797
-77.8797
-77.8797
-77.8793
-77.8793
-77.8793
-77.8793
-77.879
-77.879
-77.879
-77.879
-77.8787
-77.8787
-77.8787
-77.8787
-77.8783
-77.8783
-77.8783
-77.8783
-77.878
-77.878
-77.878
-77.878
-77.8777
-77.8777
-77.8777
-77.8777
-77.8774
-77.8774
-77.8774
-77.8774
-77.877
-77.877
-77.877
-77.877
-77.8767
-77.8767
-77.8767
-77.8767
-77.8764
-77.8764
-77.8764
-77.8764
-77.876
-77.876
-77.876
-77.876
-77.8757
-77.8757
-77.8757
-77.8757
-77.8754
-77.8754
-77.8754
-77.8754
-77.875
-77.875
-77.875
-77.875
-77.8747
-77.8747
-77.8747
-77.8747
-77.8744
-77.8744
-77.8744
-77.8744
-77.8741
-77.8741
-77.8741
-77.8741
-77.8737
-77.8737
-77.8737
-77.8737
-77.8734
-77.8734
-77.8734
-77.8734
-77.8731
-77.8731
-77.8731
-77.8731
-77.8727
-77.8727
-77.8727
-77.8727
-77.8724
-77.8724
-77.8724
-77.8724
-77.8721
-77.8721
-77.8721
-77.8721
-77.8717
-77.8717
-77.8717
-77.8717
-77.8714
-77.8714
-77.8714
-77.8714
-77.8711
-77.8711
-77.8711
-77.8711
-77.8708
-77.8708
-77.8708
-77.8708
-77.8704
-77.8704
-77.8704
-77.8704
-77.8701
-77.8701
-77.8701
-77.8701
-77.8698
-77.8698
-77.8698
-77.8698
-77.8694
-77.8694
-77.8694
-77.8694
-77.8691
-77.8691
-77.8691
-77.8691
-77.8688
-77.8688
-77.8688
-77.8688
-77.8684
-77.8684
-77.8684
-77.8684
-77.8681
-77.8681
-77.8681
-77.8681
-77.8678
-77.8678
-77.8678
-77.8678
-77.8675
-77.8675
-77.8675
-77.8675
-77.8671
-77.8671
-77.8671
-77.8671
-77.8668
-77.8668
-77.8668
-77.8668
-77.8665
-77.8665
-77.8665
-77.8665
-77.8661
-77.8661
-77.8661
-77.8661
-77.8658
-77.8658
-77.8658
-77.8658
-77.8655
-77.8655
-77.8655
-77.8655
-77.8651
-77.8651
-77.8651
-77.8651
-77.8648
-77.8648
-77.8648
-77.8648
-77.8645
-77.8645
-77.8645
-77.8645
-77.8642
-77.8642
-77.8642
-77.8642
-77.8638
-77.8638
-77.8638
-77.8638
-77.8635
-77.8635
-77.8635
-77.8635
-77.8632
-77.8632
-77.8632
-77.8632
-77.8628
-77.8628
-77.8628
-77.8628
-77.8625
-77.8625
-77.8625
-77.8625
-77.8622
-77.8622
-77.8622
-77.8622
-77.8618
-77.8618
-77.8618
-77.8618
-77.8615
-77.8615
-77.8615
-77.8615
-77.8612
-77.8612
-77.8612
-77.8612
-77.8609
-77.8609
-77.8609
-77.8609
-77.8605
-77.8605
-77.8605
-77.8605
-77.8602
-77.8602
-77.8602
-77.8602
-77.8599
-77.8599
-77.8599
-77.8599
-77.8595
-77.8595
-77.8595
-77.8595
-77.8592
-77.8592
-77.8592
-77.8592
-77.8589
-77.8589
-77.8589
-77.8589
-77.8585
-77.8585
-77.8585
-77.8585
-77.8582
-77.8582
-77.8582
-77.8582
-77.8579
-77.8579
-77.8579
-77.8579
-77.8576
-77.8576
-77.8576
-77.8576
-77.8572
-77.8572
-77.8572
-77.8572
-77.8569
-77.8569
-77.8569
-77.8569
-77.8566
-77.8566
-77.8566
-77.8566
-77.8562
-77.8562
-77.8562
-77.8562
-77.8559
-77.8559
-77.8559
-77.8559
-77.8556
-77.8556
-77.8556
-77.8556
-77.8552
-77.8552
-77.8552
-77.8552
-77.8549
-77.8549
-77.8549
-77.8549
-77.8546
-77.8546
-77.8546
-77.8546
-77.8543
-77.8543
-77.8543
-77.8543
-77.8539
-77.8539
-77.8539
-77.8539
-77.8536
-77.8536
-77.8536
-77.8536
-77.8533
-77.8533
-77.8533
-77.8533
-77.8529
-77.8529
-77.8529
-77.8529
-77.8526
-77.8526
-77.8526
-77.8526
-77.8523
-77.8523
-77.8523
-77.8523
-77.8519
-77.8519
-77.8519
-77.8519
-77.8516
-77.8516
-77.8516
-77.8516
-77.8513
-77.8513
-77.8513
-77.8513
-77.851
-77.851
-77.851
-77.851
-77.8506
-77.8506
-77.8506
-77.8506
-77.8503
-77.8503
-77.8503
-77.8503
-77.85
-77.85
-77.85
-77.85
-77.8496
-77.8496
-77.8496
-77.8496
-77.8493
-77.8493
-77.8493
-77.8493
-77.849
-77.849
-77.849
-77.849
-77.8486
-77.8486
-77.8486
-77.8486
-77.8483
-77.8483
-77.8483
-77.8483
-77.848
-77.848
-77.848
-77.848
-77.8477
-77.8477
-77.8477
-77.8477
-77.8473
-77.8473
-77.8473
-77.8473
-77.847
-77.847
-77.847
-77.847
-77.8467
-77.8467
-77.8467
-77.8467
-77.8463
-77.8463
-77.8463
-77.8463
-77.846
-77.846
-77.846
-77.846
-77.8457
-77.8457
-77.8457
-77.8457
-77.8453
-77.8453
-77.8453
-77.8453
-77.845
-77.845
-77.845
-77.845
-77.8447
-77.8447
-77.8447
-77.8447
-77.8444
-77.8444
-77.8444
-77.8444
-77.844
-77.844
-77.844
-77.844
-77.8437
-77.8437
-77.8437
-77.8437
-77.8434
-77.8434
-77.8434
-77.8434
-77.843
-77.843
-77.843
-77.843
-77.8427
-77.8427
-77.8427
-77.8427
-77.8424
-77.8424
-77.8424
-77.8424
-77.842
-77.842
-77.842
-77.842
-77.8417
-77.8417
-77.8417
-77.8417
-77.8414
-77.8414
-77.8414
-77.8414
-77.8411
-77.8411
-77.8411
-77.8411
-77.8407
-77.8407
-77.8407
-77.8407
-77.8404
-77.8404
-77.8404
-77.8404
-77.8401
-77.8401
-77.8401
-77.8401
-77.8397
-77.8397
-77.8397
-77.8397
-77.8394
-77.8394
-77.8394
-77.8394
-77.8391
-77.8391
-77.8391
-77.8391
-77.8387
-77.8387
-77.8387
-77.8387
-77.8384
-77.8384
-77.8384
-77.8384
-77.8381
-77.8381
-77.8381
-77.8381
-77.8378
-77.8378
-77.8378
-77.8378
-77.8374
-77.8374
-77.8374
-77.8374
-77.8371
-77.8371
-77.8371
-77.8371
-77.8368
-77.8368
-77.8368
-77.8368
-77.8364
-77.8364
-77.8364
-77.8364
-77.8361
-77.8361
-77.8361
-77.8361
-77.8358
-77.8358
-77.8358
-77.8358
-77.8354
-77.8354
-77.8354
-77.8354
-77.8351
-77.8351
-77.8351
-77.8351
-77.8348
-77.8348
-77.8348
-77.8348
